%!PS-Adobe-2.0 EPSF-2.0
%%Title: out/madx04.eps
%%Creator: gx11 version 1.50
%%CreationDate: 09/07/17 15:08
%%Orientation: Landscape
%%BoundingBox:  17  30 573 790
%%Pages: 0
%%EndComments
/$GX11psDict 200 dict def
$GX11psDict begin
$GX11psDict /mtrx matrix put /l {lineto} bind def
/m {moveto} bind def /s {stroke} bind def
/n {newpath} bind def /gs {gsave} bind def
/gr {grestore} bind def /clp {closepath} bind def
/t {translate} bind def /sd {setdash} bind def
/fft {findfont} bind def /col-1 {} def /r {rotate} bind def
/sf {scalefont setfont} bind def /sw {stringwidth} bind def
/stwn { /fs exch def /fn exch def /text exch def fn findfont
fs sf text sw pop xs add /xs exch def} bind def
/black {0 0 0 setrgbcolor} bind def
/blue {0 0 1 setrgbcolor} bind def
/green {0 1 0 setrgbcolor} bind def
/cyan {0 1 1 setrgbcolor} bind def
/red {1 0 0 setrgbcolor} bind def
/magenta {1 0 1 setrgbcolor} bind def
/yellow {1 1 0 setrgbcolor} bind def
/white {1 1 1 setrgbcolor} bind def
        end
/$GX11psBegin
     {$GX11psDict begin /$GX11psEnteredState save def} def
/$GX11psEnd {$GX11psEnteredState restore end} def
%%EndProlog
$GX11psBegin
0 setlinecap 0 setlinejoin
  0.250  0.250 scale

 3.750 setlinewidth [] 0 sd                 
black n  1936  1270 m  1936  2864 l
col-1 s                                 
 3.750 setlinewidth [] 0 sd                 
black n  1936  1270 m  1956  1270 l
col-1 s                                 
 3.750 setlinewidth [] 0 sd                 
black n  1936  1370 m  1946  1370 l
col-1 s                                 
 3.750 setlinewidth [] 0 sd                 
black n  1936  1469 m  1956  1469 l
col-1 s                                 
 3.750 setlinewidth [] 0 sd                 
black n  1936  1569 m  1946  1569 l
col-1 s                                 
 3.750 setlinewidth [] 0 sd                 
black n  1936  1669 m  1956  1669 l
col-1 s                                 
 3.750 setlinewidth [] 0 sd                 
black n  1936  1768 m  1946  1768 l
col-1 s                                 
 3.750 setlinewidth [] 0 sd                 
black n  1936  1868 m  1956  1868 l
col-1 s                                 
 3.750 setlinewidth [] 0 sd                 
black n  1936  1967 m  1946  1967 l
col-1 s                                 
 3.750 setlinewidth [] 0 sd                 
black n  1936  2067 m  1956  2067 l
col-1 s                                 
 3.750 setlinewidth [] 0 sd                 
black n  1936  2167 m  1946  2167 l
col-1 s                                 
 3.750 setlinewidth [] 0 sd                 
black n  1936  2266 m  1956  2266 l
col-1 s                                 
 3.750 setlinewidth [] 0 sd                 
black n  1936  2366 m  1946  2366 l
col-1 s                                 
 3.750 setlinewidth [] 0 sd                 
black n  1936  2465 m  1956  2465 l
col-1 s                                 
 3.750 setlinewidth [] 0 sd                 
black n  1936  2565 m  1946  2565 l
col-1 s                                 
 3.750 setlinewidth [] 0 sd                 
black n  1936  2665 m  1956  2665 l
col-1 s                                 
 3.750 setlinewidth [] 0 sd                 
black n  1936  2764 m  1946  2764 l
col-1 s                                 
 3.750 setlinewidth [] 0 sd                 
black n  1936  2864 m  1956  2864 l
col-1 s                                 
/xs 0 def
(2.)
/Times-Italic    96 stwn
black 2034 1270 t    90 r xs 2 div neg 0 t 0 0 m
/Times-Italic fft     96 sf 0 0 m
(2.)
show xs 2 div 0 t 0 0 m   -90 r -2034 -1270 t
/xs 0 def
(3.)
/Times-Italic    96 stwn
black 2034 1469 t    90 r xs 2 div neg 0 t 0 0 m
/Times-Italic fft     96 sf 0 0 m
(3.)
show xs 2 div 0 t 0 0 m   -90 r -2034 -1469 t
/xs 0 def
(4.)
/Times-Italic    96 stwn
black 2034 1669 t    90 r xs 2 div neg 0 t 0 0 m
/Times-Italic fft     96 sf 0 0 m
(4.)
show xs 2 div 0 t 0 0 m   -90 r -2034 -1669 t
/xs 0 def
(5.)
/Times-Italic    96 stwn
black 2034 1868 t    90 r xs 2 div neg 0 t 0 0 m
/Times-Italic fft     96 sf 0 0 m
(5.)
show xs 2 div 0 t 0 0 m   -90 r -2034 -1868 t
/xs 0 def
(6.)
/Times-Italic    96 stwn
black 2034 2067 t    90 r xs 2 div neg 0 t 0 0 m
/Times-Italic fft     96 sf 0 0 m
(6.)
show xs 2 div 0 t 0 0 m   -90 r -2034 -2067 t
/xs 0 def
(7.)
/Times-Italic    96 stwn
black 2034 2266 t    90 r xs 2 div neg 0 t 0 0 m
/Times-Italic fft     96 sf 0 0 m
(7.)
show xs 2 div 0 t 0 0 m   -90 r -2034 -2266 t
/xs 0 def
(8.)
/Times-Italic    96 stwn
black 2034 2465 t    90 r xs 2 div neg 0 t 0 0 m
/Times-Italic fft     96 sf 0 0 m
(8.)
show xs 2 div 0 t 0 0 m   -90 r -2034 -2465 t
/xs 0 def
(9.)
/Times-Italic    96 stwn
black 2034 2665 t    90 r xs 2 div neg 0 t 0 0 m
/Times-Italic fft     96 sf 0 0 m
(9.)
show xs 2 div 0 t 0 0 m   -90 r -2034 -2665 t
/xs 0 def
(10.)
/Times-Italic    96 stwn
black 2034 2864 t    90 r xs 2 div neg 0 t 0 0 m
/Times-Italic fft     96 sf 0 0 m
(10.)
show xs 2 div 0 t 0 0 m   -90 r -2034 -2864 t
black 2145 1270 t    90 r
/Times-Italic fft     85 sf 0 0 m
(                               beta.ip8)
show   -90 r -2145 -1270 t
 3.750 setlinewidth [] 0 sd                 
black n   215  1270 m   215  2864 l
col-1 s                                 
 3.750 setlinewidth [] 0 sd                 
black n   215  1270 m   235  1270 l
col-1 s                                 
 3.750 setlinewidth [] 0 sd                 
black n   215  1370 m   225  1370 l
col-1 s                                 
 3.750 setlinewidth [] 0 sd                 
black n   215  1469 m   235  1469 l
col-1 s                                 
 3.750 setlinewidth [] 0 sd                 
black n   215  1569 m   225  1569 l
col-1 s                                 
 3.750 setlinewidth [] 0 sd                 
black n   215  1669 m   235  1669 l
col-1 s                                 
 3.750 setlinewidth [] 0 sd                 
black n   215  1768 m   225  1768 l
col-1 s                                 
 3.750 setlinewidth [] 0 sd                 
black n   215  1868 m   235  1868 l
col-1 s                                 
 3.750 setlinewidth [] 0 sd                 
black n   215  1967 m   225  1967 l
col-1 s                                 
 3.750 setlinewidth [] 0 sd                 
black n   215  2067 m   235  2067 l
col-1 s                                 
 3.750 setlinewidth [] 0 sd                 
black n   215  2167 m   225  2167 l
col-1 s                                 
 3.750 setlinewidth [] 0 sd                 
black n   215  2266 m   235  2266 l
col-1 s                                 
 3.750 setlinewidth [] 0 sd                 
black n   215  2366 m   225  2366 l
col-1 s                                 
 3.750 setlinewidth [] 0 sd                 
black n   215  2465 m   235  2465 l
col-1 s                                 
 3.750 setlinewidth [] 0 sd                 
black n   215  2565 m   225  2565 l
col-1 s                                 
 3.750 setlinewidth [] 0 sd                 
black n   215  2665 m   235  2665 l
col-1 s                                 
 3.750 setlinewidth [] 0 sd                 
black n   215  2764 m   225  2764 l
col-1 s                                 
 3.750 setlinewidth [] 0 sd                 
black n   215  2864 m   235  2864 l
col-1 s                                 
black  192 1270 t    90 r
/Times-Italic fft     85 sf 0 0 m
(TST)
show   -90 r  -192 -1270 t
/xs 0 def
(MAD-X 4.00.09  17/07/09 15.08.36)
/Times-Italic    85 stwn
black  192 2864 t    90 r xs neg 0 t 0 0 m
/Times-Italic fft     85 sf 0 0 m
(MAD-X 4.00.09  17/07/09 15.08.36)
show xs 0 t 0 0 m   -90 r  -192 -2864 t
 3.750 setlinewidth [] 0 sd                 
black n  1936  1270 m   215  1270 l
col-1 s                                 
 3.750 setlinewidth [] 0 sd                 
black n  1936  1270 m  1936  1243 l
col-1 s                                 
 3.750 setlinewidth [] 0 sd                 
black n  1864  1270 m  1864  1256 l
col-1 s                                 
 3.750 setlinewidth [] 0 sd                 
black n  1792  1270 m  1792  1243 l
col-1 s                                 
 3.750 setlinewidth [] 0 sd                 
black n  1721  1270 m  1721  1256 l
col-1 s                                 
 3.750 setlinewidth [] 0 sd                 
black n  1649  1270 m  1649  1243 l
col-1 s                                 
 3.750 setlinewidth [] 0 sd                 
black n  1577  1270 m  1577  1256 l
col-1 s                                 
 3.750 setlinewidth [] 0 sd                 
black n  1505  1270 m  1505  1243 l
col-1 s                                 
 3.750 setlinewidth [] 0 sd                 
black n  1434  1270 m  1434  1256 l
col-1 s                                 
 3.750 setlinewidth [] 0 sd                 
black n  1362  1270 m  1362  1243 l
col-1 s                                 
 3.750 setlinewidth [] 0 sd                 
black n  1290  1270 m  1290  1256 l
col-1 s                                 
 3.750 setlinewidth [] 0 sd                 
black n  1219  1270 m  1219  1243 l
col-1 s                                 
 3.750 setlinewidth [] 0 sd                 
black n  1147  1270 m  1147  1256 l
col-1 s                                 
 3.750 setlinewidth [] 0 sd                 
black n  1075  1270 m  1075  1243 l
col-1 s                                 
 3.750 setlinewidth [] 0 sd                 
black n  1004  1270 m  1004  1256 l
col-1 s                                 
 3.750 setlinewidth [] 0 sd                 
black n   932  1270 m   932  1243 l
col-1 s                                 
 3.750 setlinewidth [] 0 sd                 
black n   860  1270 m   860  1256 l
col-1 s                                 
 3.750 setlinewidth [] 0 sd                 
black n   788  1270 m   788  1243 l
col-1 s                                 
 3.750 setlinewidth [] 0 sd                 
black n   717  1270 m   717  1256 l
col-1 s                                 
 3.750 setlinewidth [] 0 sd                 
black n   645  1270 m   645  1243 l
col-1 s                                 
 3.750 setlinewidth [] 0 sd                 
black n   573  1270 m   573  1256 l
col-1 s                                 
 3.750 setlinewidth [] 0 sd                 
black n   502  1270 m   502  1243 l
col-1 s                                 
 3.750 setlinewidth [] 0 sd                 
black n   430  1270 m   430  1256 l
col-1 s                                 
 3.750 setlinewidth [] 0 sd                 
black n   358  1270 m   358  1243 l
col-1 s                                 
 3.750 setlinewidth [] 0 sd                 
black n   286  1270 m   286  1256 l
col-1 s                                 
 3.750 setlinewidth [] 0 sd                 
black n   215  1270 m   215  1243 l
col-1 s                                 
/xs 0 def
(0.0041)
/Times-Italic    96 stwn
black 1962 1207 t    90 r xs neg 0 t 0 0 m
/Times-Italic fft     96 sf 0 0 m
(0.0041)
show xs 0 t 0 0 m   -90 r -1962 -1207 t
/xs 0 def
(0.0042)
/Times-Italic    96 stwn
black 1818 1207 t    90 r xs neg 0 t 0 0 m
/Times-Italic fft     96 sf 0 0 m
(0.0042)
show xs 0 t 0 0 m   -90 r -1818 -1207 t
/xs 0 def
(0.0043)
/Times-Italic    96 stwn
black 1675 1207 t    90 r xs neg 0 t 0 0 m
/Times-Italic fft     96 sf 0 0 m
(0.0043)
show xs 0 t 0 0 m   -90 r -1675 -1207 t
/xs 0 def
(0.0044)
/Times-Italic    96 stwn
black 1531 1207 t    90 r xs neg 0 t 0 0 m
/Times-Italic fft     96 sf 0 0 m
(0.0044)
show xs 0 t 0 0 m   -90 r -1531 -1207 t
/xs 0 def
(0.0045)
/Times-Italic    96 stwn
black 1388 1207 t    90 r xs neg 0 t 0 0 m
/Times-Italic fft     96 sf 0 0 m
(0.0045)
show xs 0 t 0 0 m   -90 r -1388 -1207 t
/xs 0 def
(0.0046)
/Times-Italic    96 stwn
black 1245 1207 t    90 r xs neg 0 t 0 0 m
/Times-Italic fft     96 sf 0 0 m
(0.0046)
show xs 0 t 0 0 m   -90 r -1245 -1207 t
/xs 0 def
(0.0047)
/Times-Italic    96 stwn
black 1101 1207 t    90 r xs neg 0 t 0 0 m
/Times-Italic fft     96 sf 0 0 m
(0.0047)
show xs 0 t 0 0 m   -90 r -1101 -1207 t
/xs 0 def
(0.0048)
/Times-Italic    96 stwn
black  958 1207 t    90 r xs neg 0 t 0 0 m
/Times-Italic fft     96 sf 0 0 m
(0.0048)
show xs 0 t 0 0 m   -90 r  -958 -1207 t
/xs 0 def
(0.0049)
/Times-Italic    96 stwn
black  814 1207 t    90 r xs neg 0 t 0 0 m
/Times-Italic fft     96 sf 0 0 m
(0.0049)
show xs 0 t 0 0 m   -90 r  -814 -1207 t
/xs 0 def
(0.0050)
/Times-Italic    96 stwn
black  671 1207 t    90 r xs neg 0 t 0 0 m
/Times-Italic fft     96 sf 0 0 m
(0.0050)
show xs 0 t 0 0 m   -90 r  -671 -1207 t
/xs 0 def
(0.0051)
/Times-Italic    96 stwn
black  528 1207 t    90 r xs neg 0 t 0 0 m
/Times-Italic fft     96 sf 0 0 m
(0.0051)
show xs 0 t 0 0 m   -90 r  -528 -1207 t
/xs 0 def
(0.0052)
/Times-Italic    96 stwn
black  384 1207 t    90 r xs neg 0 t 0 0 m
/Times-Italic fft     96 sf 0 0 m
(0.0052)
show xs 0 t 0 0 m   -90 r  -384 -1207 t
/xs 0 def
(0.0053)
/Times-Italic    96 stwn
black  241 1207 t    90 r xs neg 0 t 0 0 m
/Times-Italic fft     96 sf 0 0 m
(0.0053)
show xs 0 t 0 0 m   -90 r  -241 -1207 t
/xs 0 def
(kq5.l8b1)
/Times-Italic    85 stwn
black  261  512 t   180 r xs neg 0 t 0 0 m
/Times-Italic fft     85 sf 0 0 m
(kq5.l8b1)
show xs 0 t 0 0 m  -180 r  -261  -512 t
 3.750 setlinewidth [] 0 sd                 
black n  1936  2864 m   215  2864 l
col-1 s                                 
 3.750 setlinewidth [] 0 sd                 
black n  1936  2864 m  1936  2837 l
col-1 s                                 
 3.750 setlinewidth [] 0 sd                 
black n  1864  2864 m  1864  2850 l
col-1 s                                 
 3.750 setlinewidth [] 0 sd                 
black n  1792  2864 m  1792  2837 l
col-1 s                                 
 3.750 setlinewidth [] 0 sd                 
black n  1721  2864 m  1721  2850 l
col-1 s                                 
 3.750 setlinewidth [] 0 sd                 
black n  1649  2864 m  1649  2837 l
col-1 s                                 
 3.750 setlinewidth [] 0 sd                 
black n  1577  2864 m  1577  2850 l
col-1 s                                 
 3.750 setlinewidth [] 0 sd                 
black n  1505  2864 m  1505  2837 l
col-1 s                                 
 3.750 setlinewidth [] 0 sd                 
black n  1434  2864 m  1434  2850 l
col-1 s                                 
 3.750 setlinewidth [] 0 sd                 
black n  1362  2864 m  1362  2837 l
col-1 s                                 
 3.750 setlinewidth [] 0 sd                 
black n  1290  2864 m  1290  2850 l
col-1 s                                 
 3.750 setlinewidth [] 0 sd                 
black n  1219  2864 m  1219  2837 l
col-1 s                                 
 3.750 setlinewidth [] 0 sd                 
black n  1147  2864 m  1147  2850 l
col-1 s                                 
 3.750 setlinewidth [] 0 sd                 
black n  1075  2864 m  1075  2837 l
col-1 s                                 
 3.750 setlinewidth [] 0 sd                 
black n  1004  2864 m  1004  2850 l
col-1 s                                 
 3.750 setlinewidth [] 0 sd                 
black n   932  2864 m   932  2837 l
col-1 s                                 
 3.750 setlinewidth [] 0 sd                 
black n   860  2864 m   860  2850 l
col-1 s                                 
 3.750 setlinewidth [] 0 sd                 
black n   788  2864 m   788  2837 l
col-1 s                                 
 3.750 setlinewidth [] 0 sd                 
black n   717  2864 m   717  2850 l
col-1 s                                 
 3.750 setlinewidth [] 0 sd                 
black n   645  2864 m   645  2837 l
col-1 s                                 
 3.750 setlinewidth [] 0 sd                 
black n   573  2864 m   573  2850 l
col-1 s                                 
 3.750 setlinewidth [] 0 sd                 
black n   502  2864 m   502  2837 l
col-1 s                                 
 3.750 setlinewidth [] 0 sd                 
black n   430  2864 m   430  2850 l
col-1 s                                 
 3.750 setlinewidth [] 0 sd                 
black n   358  2864 m   358  2837 l
col-1 s                                 
 3.750 setlinewidth [] 0 sd                 
black n   286  2864 m   286  2850 l
col-1 s                                 
 3.750 setlinewidth [] 0 sd                 
black n   215  2864 m   215  2837 l
col-1 s                                 
 3.750 setlinewidth [] 0 sd                 
black n  1814  1270 m  1642  1370 l  1440  1469 l  1154  1569 l
   928  1669 l   802  1768 l   686  1868 l   578  1967 l   478  2067 l
   387  2167 l   326  2266 l   271  2366 l   263  2465 l   259  2565 l
   276  2665 l   254  2764 l   235  2864 l
col-1 s                                 
 3.750 setlinewidth [] 0 sd                 
black n  1817  1265 m  1812  1265 l  1809  1268 l  1809  1272 l
  1812  1275 l  1817  1275 l  1820  1272 l  1820  1268 l  1817  1265 l
col-1 s                                 
 3.750 setlinewidth [] 0 sd                 
black n  1644  1364 m  1640  1364 l  1636  1367 l  1636  1372 l
  1640  1375 l  1644  1375 l  1647  1372 l  1647  1367 l  1644  1364 l
col-1 s                                 
 3.750 setlinewidth [] 0 sd                 
black n  1442  1464 m  1438  1464 l  1435  1467 l  1435  1472 l
  1438  1475 l  1442  1475 l  1446  1472 l  1446  1467 l  1442  1464 l
col-1 s                                 
 3.750 setlinewidth [] 0 sd                 
black n  1156  1564 m  1152  1564 l  1148  1567 l  1148  1571 l
  1152  1574 l  1156  1574 l  1159  1571 l  1159  1567 l  1156  1564 l
col-1 s                                 
 3.750 setlinewidth [] 0 sd                 
black n   930  1663 m   926  1663 l   922  1666 l   922  1671 l
   926  1674 l   930  1674 l   933  1671 l   933  1666 l   930  1663 l
col-1 s                                 
 3.750 setlinewidth [] 0 sd                 
black n   804  1763 m   799  1763 l   796  1766 l   796  1770 l
   799  1774 l   804  1774 l   807  1770 l   807  1766 l   804  1763 l
col-1 s                                 
 3.750 setlinewidth [] 0 sd                 
black n   688  1862 m   683  1862 l   680  1866 l   680  1870 l
   683  1873 l   688  1873 l   691  1870 l   691  1866 l   688  1862 l
col-1 s                                 
 3.750 setlinewidth [] 0 sd                 
black n   581  1962 m   576  1962 l   573  1965 l   573  1970 l
   576  1973 l   581  1973 l   584  1970 l   584  1965 l   581  1962 l
col-1 s                                 
 3.750 setlinewidth [] 0 sd                 
black n   481  2062 m   476  2062 l   473  2065 l   473  2069 l
   476  2072 l   481  2072 l   484  2069 l   484  2065 l   481  2062 l
col-1 s                                 
 3.750 setlinewidth [] 0 sd                 
black n   390  2161 m   385  2161 l   382  2164 l   382  2169 l
   385  2172 l   390  2172 l   393  2169 l   393  2164 l   390  2161 l
col-1 s                                 
 3.750 setlinewidth [] 0 sd                 
black n   328  2261 m   324  2261 l   321  2264 l   321  2268 l
   324  2272 l   328  2272 l   332  2268 l   332  2264 l   328  2261 l
col-1 s                                 
 3.750 setlinewidth [] 0 sd                 
black n   273  2361 m   269  2361 l   265  2364 l   265  2368 l
   269  2371 l   273  2371 l   277  2368 l   277  2364 l   273  2361 l
col-1 s                                 
 3.750 setlinewidth [] 0 sd                 
black n   265  2460 m   261  2460 l   257  2463 l   257  2468 l
   261  2471 l   265  2471 l   268  2468 l   268  2463 l   265  2460 l
col-1 s                                 
 3.750 setlinewidth [] 0 sd                 
black n   262  2560 m   257  2560 l   254  2563 l   254  2567 l
   257  2570 l   262  2570 l   265  2567 l   265  2563 l   262  2560 l
col-1 s                                 
 3.750 setlinewidth [] 0 sd                 
black n   278  2659 m   273  2659 l   270  2663 l   270  2667 l
   273  2670 l   278  2670 l   281  2667 l   281  2663 l   278  2659 l
col-1 s                                 
 3.750 setlinewidth [] 0 sd                 
black n   256  2759 m   251  2759 l   248  2762 l   248  2767 l
   251  2770 l   256  2770 l   259  2767 l   259  2762 l   256  2759 l
col-1 s                                 
 3.750 setlinewidth [] 0 sd                 
black n   237  2859 m   232  2859 l   229  2862 l   229  2866 l
   232  2869 l   237  2869 l   240  2866 l   240  2862 l   237  2859 l
col-1 s                                 
/xs 0 def
(kq5.l8b1)
/Times-Italic   111 stwn
black  344 1420 t    90 r xs 2 div neg 0 t 0 0 m
/Times-Italic fft    111 sf 0 0 m
(kq5.l8b1)
show xs 2 div 0 t 0 0 m   -90 r  -344 -1420 t
 3.750 setlinewidth [2 10] 0 sd             
black n   344  1420 m  1541  1420 l
col-1 s                                 
$GX11psEnd showpage
%%EOF
