%!PS-Adobe-2.0 EPSF-2.0
%%Title: ../out/madx101.eps
%%Creator: gx11 version  1.50
%%CreationDate: 19/07/02 11:13
%%Orientation: Landscape
%%BoundingBox:  17  30 573 790
%%Pages: 0
%%EndComments
/$GX11psDict 200 dict def
$GX11psDict begin
$GX11psDict /mtrx matrix put /l {lineto} bind def
/m {moveto} bind def /s {stroke} bind def
/n {newpath} bind def /gs {gsave} bind def
/gr {grestore} bind def /clp {closepath} bind def
/t {translate} bind def /sd {setdash} bind def
/fft {findfont} bind def /col-1 {} def /r {rotate} bind def
/sf {scalefont setfont} bind def /sw {stringwidth} bind def
/stwn { /fs exch def /fn exch def /text exch def fn findfont
fs sf text sw pop xs add /xs exch def} bind def
/black {0 0 0 setrgbcolor} bind def
/blue {0 0 1 setrgbcolor} bind def
/green {0 1 0 setrgbcolor} bind def
/cyan {0 1 1 setrgbcolor} bind def
/red {1 0 0 setrgbcolor} bind def
/magenta {1 0 1 setrgbcolor} bind def
/yellow {1 1 0 setrgbcolor} bind def
/white {1 1 1 setrgbcolor} bind def
        end
/$GX11psBegin
     {$GX11psDict begin /$GX11psEnteredState save def} def
/$GX11psEnd {$GX11psEnteredState restore end} def
%%EndProlog
$GX11psBegin
0 setlinecap 0 setlinejoin
  0.250  0.250 scale

 3.750 setlinewidth [] 0 sd                 
black n  1953   825 m  1953  2835 l
col-1 s                                 
 3.750 setlinewidth [] 0 sd                 
black n  1953   825 m  1971   825 l
col-1 s                                 
 3.750 setlinewidth [] 0 sd                 
black n  1953   925 m  1962   925 l
col-1 s                                 
 3.750 setlinewidth [] 0 sd                 
black n  1953  1026 m  1971  1026 l
col-1 s                                 
 3.750 setlinewidth [] 0 sd                 
black n  1953  1126 m  1962  1126 l
col-1 s                                 
 3.750 setlinewidth [] 0 sd                 
black n  1953  1227 m  1971  1227 l
col-1 s                                 
 3.750 setlinewidth [] 0 sd                 
black n  1953  1327 m  1962  1327 l
col-1 s                                 
 3.750 setlinewidth [] 0 sd                 
black n  1953  1428 m  1971  1428 l
col-1 s                                 
 3.750 setlinewidth [] 0 sd                 
black n  1953  1528 m  1962  1528 l
col-1 s                                 
 3.750 setlinewidth [] 0 sd                 
black n  1953  1629 m  1971  1629 l
col-1 s                                 
 3.750 setlinewidth [] 0 sd                 
black n  1953  1729 m  1962  1729 l
col-1 s                                 
 3.750 setlinewidth [] 0 sd                 
black n  1953  1830 m  1971  1830 l
col-1 s                                 
 3.750 setlinewidth [] 0 sd                 
black n  1953  1930 m  1962  1930 l
col-1 s                                 
 3.750 setlinewidth [] 0 sd                 
black n  1953  2031 m  1971  2031 l
col-1 s                                 
 3.750 setlinewidth [] 0 sd                 
black n  1953  2131 m  1962  2131 l
col-1 s                                 
 3.750 setlinewidth [] 0 sd                 
black n  1953  2232 m  1971  2232 l
col-1 s                                 
 3.750 setlinewidth [] 0 sd                 
black n  1953  2332 m  1962  2332 l
col-1 s                                 
 3.750 setlinewidth [] 0 sd                 
black n  1953  2433 m  1971  2433 l
col-1 s                                 
 3.750 setlinewidth [] 0 sd                 
black n  1953  2534 m  1962  2534 l
col-1 s                                 
 3.750 setlinewidth [] 0 sd                 
black n  1953  2634 m  1971  2634 l
col-1 s                                 
 3.750 setlinewidth [] 0 sd                 
black n  1953  2735 m  1962  2735 l
col-1 s                                 
 3.750 setlinewidth [] 0 sd                 
black n  1953  2835 m  1971  2835 l
col-1 s                                 
/xs 0 def
(0.0)
/Times-Italic    87 stwn
black 2042  825 t    90 r xs 2 div neg 0 t 0 0 m
/Times-Italic fft     87 sf 0 0 m
(0.0)
show xs 2 div 0 t 0 0 m   -90 r -2042  -825 t
/xs 0 def
(40.)
/Times-Italic    87 stwn
black 2042 1227 t    90 r xs 2 div neg 0 t 0 0 m
/Times-Italic fft     87 sf 0 0 m
(40.)
show xs 2 div 0 t 0 0 m   -90 r -2042 -1227 t
/xs 0 def
(80.)
/Times-Italic    87 stwn
black 2042 1629 t    90 r xs 2 div neg 0 t 0 0 m
/Times-Italic fft     87 sf 0 0 m
(80.)
show xs 2 div 0 t 0 0 m   -90 r -2042 -1629 t
/xs 0 def
(120.)
/Times-Italic    87 stwn
black 2042 2031 t    90 r xs 2 div neg 0 t 0 0 m
/Times-Italic fft     87 sf 0 0 m
(120.)
show xs 2 div 0 t 0 0 m   -90 r -2042 -2031 t
/xs 0 def
(160.)
/Times-Italic    87 stwn
black 2042 2433 t    90 r xs 2 div neg 0 t 0 0 m
/Times-Italic fft     87 sf 0 0 m
(160.)
show xs 2 div 0 t 0 0 m   -90 r -2042 -2433 t
/xs 0 def
(200.)
/Times-Italic    87 stwn
black 2042 2835 t    90 r xs 2 div neg 0 t 0 0 m
/Times-Italic fft     87 sf 0 0 m
(200.)
show xs 2 div 0 t 0 0 m   -90 r -2042 -2835 t
black 2142  825 t    90 r
/Times-Italic fft     77 sf 0 0 m
(                               s \(m\))
show   -90 r -2142  -825 t
 3.750 setlinewidth [] 0 sd                 
black n  405  825 m   405  2835 l
col-1 s                                 
 3.750 setlinewidth [] 0 sd                 
black n  405  825 m  423  825 l
col-1 s                                 
 3.750 setlinewidth [] 0 sd                 
black n  405  925 m  414  925 l
col-1 s                                 
 3.750 setlinewidth [] 0 sd                 
black n   405  1026 m   423  1026 l
col-1 s                                 
 3.750 setlinewidth [] 0 sd                 
black n   405  1126 m   414  1126 l
col-1 s                                 
 3.750 setlinewidth [] 0 sd                 
black n   405  1227 m   423  1227 l
col-1 s                                 
 3.750 setlinewidth [] 0 sd                 
black n   405  1327 m   414  1327 l
col-1 s                                 
 3.750 setlinewidth [] 0 sd                 
black n   405  1428 m   423  1428 l
col-1 s                                 
 3.750 setlinewidth [] 0 sd                 
black n   405  1528 m   414  1528 l
col-1 s                                 
 3.750 setlinewidth [] 0 sd                 
black n   405  1629 m   423  1629 l
col-1 s                                 
 3.750 setlinewidth [] 0 sd                 
black n   405  1729 m   414  1729 l
col-1 s                                 
 3.750 setlinewidth [] 0 sd                 
black n   405  1830 m   423  1830 l
col-1 s                                 
 3.750 setlinewidth [] 0 sd                 
black n   405  1930 m   414  1930 l
col-1 s                                 
 3.750 setlinewidth [] 0 sd                 
black n   405  2031 m   423  2031 l
col-1 s                                 
 3.750 setlinewidth [] 0 sd                 
black n   405  2131 m   414  2131 l
col-1 s                                 
 3.750 setlinewidth [] 0 sd                 
black n   405  2232 m   423  2232 l
col-1 s                                 
 3.750 setlinewidth [] 0 sd                 
black n   405  2332 m   414  2332 l
col-1 s                                 
 3.750 setlinewidth [] 0 sd                 
black n   405  2433 m   423  2433 l
col-1 s                                 
 3.750 setlinewidth [] 0 sd                 
black n   405  2534 m   414  2534 l
col-1 s                                 
 3.750 setlinewidth [] 0 sd                 
black n   405  2634 m   423  2634 l
col-1 s                                 
 3.750 setlinewidth [] 0 sd                 
black n   405  2735 m   414  2735 l
col-1 s                                 
 3.750 setlinewidth [] 0 sd                 
black n   405  2835 m   423  2835 l
col-1 s                                 
black  384  825 t    90 r
/Times-Italic fft     77 sf 0 0 m
(TT2/FTA optics. Protons - 26 GeV/c)
show   -90 r  -384  -825 t
/xs 0 def
(MAD-X 5.02.06  02/07/19 11.13.35)
/Times-Italic    77 stwn
black  384 2835 t    90 r xs neg 0 t 0 0 m
/Times-Italic fft     77 sf 0 0 m
(MAD-X 5.02.06  02/07/19 11.13.35)
show xs 0 t 0 0 m   -90 r  -384 -2835 t
 3.750 setlinewidth [] 0 sd                 
black n  1953   825 m  405  825 l
col-1 s                                 
 3.750 setlinewidth [] 0 sd                 
black n  1953   825 m  1953   800 l
col-1 s                                 
 3.750 setlinewidth [] 0 sd                 
black n  1867   825 m  1867   812 l
col-1 s                                 
 3.750 setlinewidth [] 0 sd                 
black n  1781   825 m  1781   800 l
col-1 s                                 
 3.750 setlinewidth [] 0 sd                 
black n  1695   825 m  1695   812 l
col-1 s                                 
 3.750 setlinewidth [] 0 sd                 
black n  1609   825 m  1609   800 l
col-1 s                                 
 3.750 setlinewidth [] 0 sd                 
black n  1523   825 m  1523   812 l
col-1 s                                 
 3.750 setlinewidth [] 0 sd                 
black n  1437   825 m  1437   800 l
col-1 s                                 
 3.750 setlinewidth [] 0 sd                 
black n  1351   825 m  1351   812 l
col-1 s                                 
 3.750 setlinewidth [] 0 sd                 
black n  1265   825 m  1265   800 l
col-1 s                                 
 3.750 setlinewidth [] 0 sd                 
black n  1179   825 m  1179   812 l
col-1 s                                 
 3.750 setlinewidth [] 0 sd                 
black n  1093   825 m  1093   800 l
col-1 s                                 
 3.750 setlinewidth [] 0 sd                 
black n  1007   825 m  1007   812 l
col-1 s                                 
 3.750 setlinewidth [] 0 sd                 
black n  921  825 m  921  800 l
col-1 s                                 
 3.750 setlinewidth [] 0 sd                 
black n  835  825 m  835  812 l
col-1 s                                 
 3.750 setlinewidth [] 0 sd                 
black n  749  825 m  749  800 l
col-1 s                                 
 3.750 setlinewidth [] 0 sd                 
black n  663  825 m  663  812 l
col-1 s                                 
 3.750 setlinewidth [] 0 sd                 
black n  577  825 m  577  800 l
col-1 s                                 
 3.750 setlinewidth [] 0 sd                 
black n  491  825 m  491  812 l
col-1 s                                 
 3.750 setlinewidth [] 0 sd                 
black n  405  825 m  405  800 l
col-1 s                                 
/xs 0 def
(0.0)
/Times-Italic    87 stwn
black 1977  764 t    90 r xs neg 0 t 0 0 m
/Times-Italic fft     87 sf 0 0 m
(0.0)
show xs 0 t 0 0 m   -90 r -1977  -764 t
/xs 0 def
(20.)
/Times-Italic    87 stwn
black 1805  764 t    90 r xs neg 0 t 0 0 m
/Times-Italic fft     87 sf 0 0 m
(20.)
show xs 0 t 0 0 m   -90 r -1805  -764 t
/xs 0 def
(40.)
/Times-Italic    87 stwn
black 1633  764 t    90 r xs neg 0 t 0 0 m
/Times-Italic fft     87 sf 0 0 m
(40.)
show xs 0 t 0 0 m   -90 r -1633  -764 t
/xs 0 def
(60.)
/Times-Italic    87 stwn
black 1461  764 t    90 r xs neg 0 t 0 0 m
/Times-Italic fft     87 sf 0 0 m
(60.)
show xs 0 t 0 0 m   -90 r -1461  -764 t
/xs 0 def
(80.)
/Times-Italic    87 stwn
black 1288  764 t    90 r xs neg 0 t 0 0 m
/Times-Italic fft     87 sf 0 0 m
(80.)
show xs 0 t 0 0 m   -90 r -1288  -764 t
/xs 0 def
(100.)
/Times-Italic    87 stwn
black 1116  764 t    90 r xs neg 0 t 0 0 m
/Times-Italic fft     87 sf 0 0 m
(100.)
show xs 0 t 0 0 m   -90 r -1116  -764 t
/xs 0 def
(120.)
/Times-Italic    87 stwn
black  944  764 t    90 r xs neg 0 t 0 0 m
/Times-Italic fft     87 sf 0 0 m
(120.)
show xs 0 t 0 0 m   -90 r  -944  -764 t
/xs 0 def
(140.)
/Times-Italic    87 stwn
black  772  764 t    90 r xs neg 0 t 0 0 m
/Times-Italic fft     87 sf 0 0 m
(140.)
show xs 0 t 0 0 m   -90 r  -772  -764 t
/xs 0 def
(160.)
/Times-Italic    87 stwn
black  600  764 t    90 r xs neg 0 t 0 0 m
/Times-Italic fft     87 sf 0 0 m
(160.)
show xs 0 t 0 0 m   -90 r  -600  -764 t
/xs 0 def
(180.)
/Times-Italic    87 stwn
black  428  764 t    90 r xs neg 0 t 0 0 m
/Times-Italic fft     87 sf 0 0 m
(180.)
show xs 0 t 0 0 m   -90 r  -428  -764 t
black  835  445 t   180 r
/Symbol fft     75 sf 0 0 m
(b)
show  -180 r  -835  -445 t
black  799  445 t   180 r
/Times-Italic fft     38 sf 0 0 m
(x)
show  -180 r  -799  -445 t
black  783  445 t   180 r
/Times-Italic fft     77 sf 0 0 m
()
show  -180 r  -783  -445 t
black  753  445 t   180 r
/Times-Italic fft     77 sf 0 0 m
(\()
show  -180 r  -753  -445 t
black  727  445 t   180 r
/Times-Italic fft     77 sf 0 0 m
(m)
show  -180 r  -727  -445 t
black  670  445 t   180 r
/Times-Italic fft     77 sf 0 0 m
(\))
show  -180 r  -670  -445 t
black  644  445 t   180 r
/Times-Italic fft     77 sf 0 0 m
(,)
show  -180 r  -644  -445 t
black  625  445 t   180 r
/Times-Italic fft     77 sf 0 0 m
()
show  -180 r  -625  -445 t
black  595  445 t   180 r
/Symbol fft     75 sf 0 0 m
(b)
show  -180 r  -595  -445 t
black  559  445 t   180 r
/Times-Italic fft     38 sf 0 0 m
(y)
show  -180 r  -559  -445 t
black  544  445 t   180 r
/Times-Italic fft     77 sf 0 0 m
()
show  -180 r  -544  -445 t
black  514  445 t   180 r
/Times-Italic fft     77 sf 0 0 m
(\()
show  -180 r  -514  -445 t
black  487  445 t   180 r
/Times-Italic fft     77 sf 0 0 m
(m)
show  -180 r  -487  -445 t
black  431  445 t   180 r
/Times-Italic fft     77 sf 0 0 m
(\))
show  -180 r  -431  -445 t
 3.750 setlinewidth [] 0 sd                 
black n  1953  2835 m   405  2835 l
col-1 s                                 
 3.750 setlinewidth [] 0 sd                 
black n  1953  2835 m  1953  2811 l
col-1 s                                 
 3.750 setlinewidth [] 0 sd                 
black n  1867  2835 m  1867  2823 l
col-1 s                                 
 3.750 setlinewidth [] 0 sd                 
black n  1781  2835 m  1781  2811 l
col-1 s                                 
 3.750 setlinewidth [] 0 sd                 
black n  1695  2835 m  1695  2823 l
col-1 s                                 
 3.750 setlinewidth [] 0 sd                 
black n  1609  2835 m  1609  2811 l
col-1 s                                 
 3.750 setlinewidth [] 0 sd                 
black n  1523  2835 m  1523  2823 l
col-1 s                                 
 3.750 setlinewidth [] 0 sd                 
black n  1437  2835 m  1437  2811 l
col-1 s                                 
 3.750 setlinewidth [] 0 sd                 
black n  1351  2835 m  1351  2823 l
col-1 s                                 
 3.750 setlinewidth [] 0 sd                 
black n  1265  2835 m  1265  2811 l
col-1 s                                 
 3.750 setlinewidth [] 0 sd                 
black n  1179  2835 m  1179  2823 l
col-1 s                                 
 3.750 setlinewidth [] 0 sd                 
black n  1093  2835 m  1093  2811 l
col-1 s                                 
 3.750 setlinewidth [] 0 sd                 
black n  1007  2835 m  1007  2823 l
col-1 s                                 
 3.750 setlinewidth [] 0 sd                 
black n   921  2835 m   921  2811 l
col-1 s                                 
 3.750 setlinewidth [] 0 sd                 
black n   835  2835 m   835  2823 l
col-1 s                                 
 3.750 setlinewidth [] 0 sd                 
black n   749  2835 m   749  2811 l
col-1 s                                 
 3.750 setlinewidth [] 0 sd                 
black n   663  2835 m   663  2823 l
col-1 s                                 
 3.750 setlinewidth [] 0 sd                 
black n   577  2835 m   577  2811 l
col-1 s                                 
 3.750 setlinewidth [] 0 sd                 
black n   491  2835 m   491  2823 l
col-1 s                                 
 3.750 setlinewidth [] 0 sd                 
black n   405  2835 m   405  2811 l
col-1 s                                 
 3.750 setlinewidth [] 0 sd                 
black n  1609   825 m  1590   831 l  1631   859 l  1635   862 l
  1646   870 l  1666   886 l  1686   905 l  1694   912 l  1668   924 l
  1629   931 l  1488   953 l  1441   959 l  1394   966 l  1311   976 l
  1296   988 l  1320   992 l  1348   997 l  1396  1006 l  1429  1012 l
  1521  1031 l  1554  1038 l  1803  1110 l  1817  1122 l  1817  1139 l
  1815  1147 l  1813  1154 l  1805  1175 l  1790  1198 l  1786  1203 l
  1780  1210 l  1780  1222 l  1785  1229 l  1794  1243 l  1801  1258 l
  1808  1281 l  1809  1290 l  1810  1300 l  1794  1312 l  1780  1318 l
  1556  1378 l  1528  1384 l  1512  1387 l  1485  1392 l  1475  1405 l
  1497  1411 l  1537  1423 l  1601  1444 l  1623  1452 l  1720  1491 l
  1782  1524 l  1808  1542 l  1808  1550 l  1801  1556 l  1791  1563 l
  1758  1585 l  1705  1612 l  1687  1620 l  1667  1628 l  1668  1640 l
  1683  1646 l  1701  1654 l  1789  1702 l  1807  1715 l  1816  1723 l
  1816  1731 l  1657  1816 l  1656  1824 l  1765  1876 l  1801  1900 l
  1812  1908 l  1811  1917 l  1650  2001 l  1650  2009 l  1803  2087 l
  1811  2094 l  1811  2102 l  1650  2187 l  1650  2195 l  1665  2201 l
  1724  2227 l  1739  2234 l  1784  2260 l  1786  2261 l  1793  2266 l
  1800  2271 l  1804  2274 l  1826  2293 l  1834  2301 l  1837  2303 l
  1841  2308 l  1843  2311 l  1855  2331 l  1857  2337 l  1861  2357 l
  1859  2372 l  1840  2409 l  1799  2447 l  1783  2458 l  1769  2466 l
  1764  2469 l
col-1 s                                 
 3.750 setlinewidth [] 0 sd                 
black n  1764  2469 m  1740  2482 l  1734  2485 l  1707  2498 l
  1673  2513 l  1660  2518 l  1657  2519 l  1648  2523 l  1641  2525 l
  1632  2529 l  1625  2531 l  1580  2540 l  1564  2542 l  1524  2546 l
  1516  2547 l   799  2607 l   785  2608 l   781  2616 l   795  2617 l
  1511  2680 l  1519  2681 l  1551  2685 l  1558  2686 l  1600  2691 l
  1621  2694 l  1641  2697 l  1766  2716 l  1787  2720 l  1804  2724 l
  1835  2731 l  1863  2738 l  1886  2745 l  1883  2755 l  1867  2760 l
  1879  2770 l  1947  2793 l  1947  2795 l  1944  2800 l
col-1 s                                 
black  521  967 t    90 r
/Symbol fft     98 sf 0 0 m
(b)
show   -90 r  -521  -967 t
black  521 1031 t    90 r
/Times-Italic fft     50 sf 0 0 m
(x)
show   -90 r  -521 -1031 t
 3.750 setlinewidth [2 10] 0 sd             
black n   521  1013 m  1434  1013 l
col-1 s                                 
 3.750 setlinewidth [20] 0 sd               
red n  1867   825 m  1870   831 l  1841   859 l  1837   862 l
  1826   870 l  1798   886 l  1760   905 l  1743   912 l  1743   924 l
  1759   931 l  1804   953 l  1816   959 l  1826   966 l  1840   976 l
  1841   988 l  1836   992 l  1829   997 l  1816  1006 l  1805  1012 l
  1769  1031 l  1754  1038 l  1539  1110 l  1532  1122 l  1577  1139 l
  1594  1147 l  1611  1154 l  1657  1175 l  1700  1198 l  1709  1203 l
  1720  1210 l  1725  1222 l  1719  1229 l  1706  1243 l  1690  1258 l
  1664  1281 l  1652  1290 l  1638  1300 l  1651  1312 l  1670  1318 l
  1828  1378 l  1839  1384 l  1844  1387 l  1853  1392 l  1858  1405 l
  1855  1411 l  1847  1423 l  1827  1444 l  1818  1452 l  1755  1491 l
  1684  1524 l  1637  1542 l  1636  1550 l  1651  1556 l  1669  1563 l
  1717  1585 l  1768  1612 l  1781  1620 l  1794  1628 l  1794  1640 l
  1785  1646 l  1773  1654 l  1679  1702 l  1648  1715 l  1628  1723 l
  1628  1731 l  1804  1816 l  1805  1824 l  1721  1876 l  1669  1900 l
  1649  1908 l  1650  1917 l  1811  2001 l  1811  2009 l  1667  2087 l
  1650  2094 l  1650  2102 l  1811  2187 l  1811  2195 l  1804  2201 l
  1764  2227 l  1751  2234 l  1698  2260 l  1696  2261 l  1685  2266 l
  1673  2271 l  1667  2274 l  1618  2293 l  1596  2301 l  1588  2303 l
  1574  2308 l  1566  2311 l  1505  2331 l  1483  2337 l  1415  2357 l
  1360  2372 l  1209  2409 l  1037  2447 l   981  2458 l   939  2466 l
   923  2469 l
col-1 s                                 
 3.750 setlinewidth [20] 0 sd               
red n   923  2469 m   854  2482 l   840  2485 l   767  2498 l
   684  2513 l   654  2518 l   645  2519 l   626  2523 l   610  2525 l
   590  2529 l   573  2531 l   608  2540 l   636  2542 l   699  2546 l
   712  2547 l  1400  2607 l  1409  2608 l  1429  2616 l  1425  2617 l
  1129  2680 l  1124  2681 l  1104  2685 l  1099  2686 l  1070  2691 l
  1055  2694 l  1040  2697 l   926  2716 l   902  2720 l   882  2724 l
   839  2731 l   795  2738 l   751  2745 l  1212  2755 l  1517  2760 l
  1835  2770 l  1949  2793 l  1943  2795 l  1925  2800 l
col-1 s                                 
red  521 1345 t    90 r
/Symbol fft     98 sf 0 0 m
(b)
show   -90 r  -521 -1345 t
red  521 1409 t    90 r
/Times-Italic fft     50 sf 0 0 m
(y)
show   -90 r  -521 -1409 t
 3.750 setlinewidth [2 10] 0 sd             
red n   521  1390 m  1849  1390 l
col-1 s                                 
 3.750 setlinewidth [] 0 sd                 
black n  211  825 m  211  831 l
col-1 s                                 
 3.750 setlinewidth [] 0 sd                 
black n  211  831 m  131  831 l
col-1 s                                 
 3.750 setlinewidth [] 0 sd                 
black n  131  831 m  131  825 l
col-1 s                                 
 3.750 setlinewidth [] 0 sd                 
black n  131  825 m  211  825 l
col-1 s                                 
 3.750 setlinewidth [] 0 sd                 
black n  211  831 m  211  862 l
col-1 s                                 
 3.750 setlinewidth [2 10] 0 sd             
black n  151  862 m  151  862 l
col-1 s                                 
 3.750 setlinewidth [2 10] 0 sd             
black n  151  862 m  271  862 l
col-1 s                                 
 3.750 setlinewidth [2 10] 0 sd             
black n  271  862 m  271  862 l
col-1 s                                 
 3.750 setlinewidth [2 10] 0 sd             
black n  271  862 m  151  862 l
col-1 s                                 
 3.750 setlinewidth [] 0 sd                 
black n  211  862 m  211  870 l
col-1 s                                 
 3.750 setlinewidth [2 10] 0 sd             
black n  151  870 m  151  870 l
col-1 s                                 
 3.750 setlinewidth [2 10] 0 sd             
black n  151  870 m  271  870 l
col-1 s                                 
 3.750 setlinewidth [2 10] 0 sd             
black n  271  870 m  271  870 l
col-1 s                                 
 3.750 setlinewidth [2 10] 0 sd             
black n  271  870 m  151  870 l
col-1 s                                 
 3.750 setlinewidth [] 0 sd                 
black n  211  870 m  211  886 l
col-1 s                                 
 3.750 setlinewidth [] 0 sd                 
black n  151  886 m  151  905 l
col-1 s                                 
 3.750 setlinewidth [] 0 sd                 
black n  151  905 m  271  905 l
col-1 s                                 
 3.750 setlinewidth [] 0 sd                 
black n  271  905 m  271  886 l
col-1 s                                 
 3.750 setlinewidth [] 0 sd                 
black n  271  886 m  151  886 l
col-1 s                                 
 3.750 setlinewidth [] 0 sd                 
black n  211  905 m  211  912 l
col-1 s                                 
 3.750 setlinewidth [] 0 sd                 
black n  211  912 m  211  924 l
col-1 s                                 
 3.750 setlinewidth [] 0 sd                 
black n  211  924 m  291  924 l
col-1 s                                 
 3.750 setlinewidth [] 0 sd                 
black n  291  924 m  291  912 l
col-1 s                                 
 3.750 setlinewidth [] 0 sd                 
black n  291  912 m  211  912 l
col-1 s                                 
 3.750 setlinewidth [] 0 sd                 
black n  211  924 m  211  931 l
col-1 s                                 
 3.750 setlinewidth [] 0 sd                 
black n  161  931 m  161  953 l
col-1 s                                 
 3.750 setlinewidth [] 0 sd                 
black n  161  953 m  261  953 l
col-1 s                                 
 3.750 setlinewidth [] 0 sd                 
black n  261  953 m  261  931 l
col-1 s                                 
 3.750 setlinewidth [] 0 sd                 
black n  261  931 m  161  931 l
col-1 s                                 
 3.750 setlinewidth [] 0 sd                 
black n  211  953 m  211  959 l
col-1 s                                 
 3.750 setlinewidth [2 10] 0 sd             
black n  151  959 m  151  959 l
col-1 s                                 
 3.750 setlinewidth [2 10] 0 sd             
black n  151  959 m  271  959 l
col-1 s                                 
 3.750 setlinewidth [2 10] 0 sd             
black n  271  959 m  271  959 l
col-1 s                                 
 3.750 setlinewidth [2 10] 0 sd             
black n  271  959 m  151  959 l
col-1 s                                 
 3.750 setlinewidth [] 0 sd                 
black n  211  959 m  211  976 l
col-1 s                                 
 3.750 setlinewidth [] 0 sd                 
black n  211  976 m  211  988 l
col-1 s                                 
 3.750 setlinewidth [] 0 sd                 
black n  211  988 m  131  988 l
col-1 s                                 
 3.750 setlinewidth [] 0 sd                 
black n  131  988 m  131  976 l
col-1 s                                 
 3.750 setlinewidth [] 0 sd                 
black n  131  976 m  211  976 l
col-1 s                                 
 3.750 setlinewidth [] 0 sd                 
black n  211  988 m  211  992 l
col-1 s                                 
 3.750 setlinewidth [2 10] 0 sd             
black n  151  992 m  151  992 l
col-1 s                                 
 3.750 setlinewidth [2 10] 0 sd             
black n  151  992 m  271  992 l
col-1 s                                 
 3.750 setlinewidth [2 10] 0 sd             
black n  271  992 m  271  992 l
col-1 s                                 
 3.750 setlinewidth [2 10] 0 sd             
black n  271  992 m  151  992 l
col-1 s                                 
 3.750 setlinewidth [] 0 sd                 
black n  211  992 m  211  997 l
col-1 s                                 
 3.750 setlinewidth [2 10] 0 sd             
black n  151  997 m  151  997 l
col-1 s                                 
 3.750 setlinewidth [2 10] 0 sd             
black n  151  997 m  271  997 l
col-1 s                                 
 3.750 setlinewidth [2 10] 0 sd             
black n  271  997 m  271  997 l
col-1 s                                 
 3.750 setlinewidth [2 10] 0 sd             
black n  271  997 m  151  997 l
col-1 s                                 
 3.750 setlinewidth [] 0 sd                 
black n  211  997 m   211  1006 l
col-1 s                                 
 3.750 setlinewidth [2 10] 0 sd             
black n   151  1006 m   151  1006 l
col-1 s                                 
 3.750 setlinewidth [2 10] 0 sd             
black n   151  1006 m   271  1006 l
col-1 s                                 
 3.750 setlinewidth [2 10] 0 sd             
black n   271  1006 m   271  1006 l
col-1 s                                 
 3.750 setlinewidth [2 10] 0 sd             
black n   271  1006 m   151  1006 l
col-1 s                                 
 3.750 setlinewidth [] 0 sd                 
black n   211  1006 m   211  1012 l
col-1 s                                 
 3.750 setlinewidth [] 0 sd                 
black n   151  1012 m   151  1031 l
col-1 s                                 
 3.750 setlinewidth [] 0 sd                 
black n   151  1031 m   271  1031 l
col-1 s                                 
 3.750 setlinewidth [] 0 sd                 
black n   271  1031 m   271  1012 l
col-1 s                                 
 3.750 setlinewidth [] 0 sd                 
black n   271  1012 m   151  1012 l
col-1 s                                 
 3.750 setlinewidth [] 0 sd                 
black n   211  1031 m   211  1110 l
col-1 s                                 
 3.750 setlinewidth [] 0 sd                 
black n   211  1110 m   211  1122 l
col-1 s                                 
 3.750 setlinewidth [] 0 sd                 
black n   211  1122 m   291  1122 l
col-1 s                                 
 3.750 setlinewidth [] 0 sd                 
black n   291  1122 m   291  1110 l
col-1 s                                 
 3.750 setlinewidth [] 0 sd                 
black n   291  1110 m   211  1110 l
col-1 s                                 
 3.750 setlinewidth [] 0 sd                 
black n   211  1122 m   211  1139 l
col-1 s                                 
 3.750 setlinewidth [2 10] 0 sd             
black n   151  1139 m   151  1147 l
col-1 s                                 
 3.750 setlinewidth [2 10] 0 sd             
black n   151  1147 m   271  1147 l
col-1 s                                 
 3.750 setlinewidth [2 10] 0 sd             
black n   271  1147 m   271  1139 l
col-1 s                                 
 3.750 setlinewidth [2 10] 0 sd             
black n   271  1139 m   151  1139 l
col-1 s                                 
 3.750 setlinewidth [] 0 sd                 
black n   211  1147 m   211  1198 l
col-1 s                                 
 3.750 setlinewidth [] 0 sd                 
black n   211  1198 m   211  1203 l
col-1 s                                 
 3.750 setlinewidth [] 0 sd                 
black n   211  1203 m   131  1203 l
col-1 s                                 
 3.750 setlinewidth [] 0 sd                 
black n   131  1203 m   131  1198 l
col-1 s                                 
 3.750 setlinewidth [] 0 sd                 
black n   131  1198 m   211  1198 l
col-1 s                                 
 3.750 setlinewidth [] 0 sd                 
black n   211  1203 m   211  1210 l
col-1 s                                 
 3.750 setlinewidth [] 0 sd                 
black n   211  1210 m   211  1222 l
col-1 s                                 
 3.750 setlinewidth [] 0 sd                 
black n   211  1222 m   131  1222 l
col-1 s                                 
 3.750 setlinewidth [] 0 sd                 
black n   131  1222 m   131  1210 l
col-1 s                                 
 3.750 setlinewidth [] 0 sd                 
black n   131  1210 m   211  1210 l
col-1 s                                 
 3.750 setlinewidth [] 0 sd                 
black n   211  1222 m   211  1229 l
col-1 s                                 
 3.750 setlinewidth [] 0 sd                 
black n   151  1229 m   151  1243 l
col-1 s                                 
 3.750 setlinewidth [] 0 sd                 
black n   151  1243 m   271  1243 l
col-1 s                                 
 3.750 setlinewidth [] 0 sd                 
black n   271  1243 m   271  1229 l
col-1 s                                 
 3.750 setlinewidth [] 0 sd                 
black n   271  1229 m   151  1229 l
col-1 s                                 
 3.750 setlinewidth [] 0 sd                 
black n   211  1243 m   211  1258 l
col-1 s                                 
 3.750 setlinewidth [] 0 sd                 
black n   161  1258 m   161  1281 l
col-1 s                                 
 3.750 setlinewidth [] 0 sd                 
black n   161  1281 m   261  1281 l
col-1 s                                 
 3.750 setlinewidth [] 0 sd                 
black n   261  1281 m   261  1258 l
col-1 s                                 
 3.750 setlinewidth [] 0 sd                 
black n   261  1258 m   161  1258 l
col-1 s                                 
 3.750 setlinewidth [] 0 sd                 
black n   211  1281 m   211  1300 l
col-1 s                                 
 3.750 setlinewidth [] 0 sd                 
black n   211  1300 m   211  1312 l
col-1 s                                 
 3.750 setlinewidth [] 0 sd                 
black n   211  1312 m   291  1312 l
col-1 s                                 
 3.750 setlinewidth [] 0 sd                 
black n   291  1312 m   291  1300 l
col-1 s                                 
 3.750 setlinewidth [] 0 sd                 
black n   291  1300 m   211  1300 l
col-1 s                                 
 3.750 setlinewidth [] 0 sd                 
black n   211  1312 m   211  1378 l
col-1 s                                 
 3.750 setlinewidth [2 10] 0 sd             
black n   151  1378 m   151  1378 l
col-1 s                                 
 3.750 setlinewidth [2 10] 0 sd             
black n   151  1378 m   271  1378 l
col-1 s                                 
 3.750 setlinewidth [2 10] 0 sd             
black n   271  1378 m   271  1378 l
col-1 s                                 
 3.750 setlinewidth [2 10] 0 sd             
black n   271  1378 m   151  1378 l
col-1 s                                 
 3.750 setlinewidth [] 0 sd                 
black n   211  1378 m   211  1384 l
col-1 s                                 
 3.750 setlinewidth [2 10] 0 sd             
black n   151  1384 m   151  1384 l
col-1 s                                 
 3.750 setlinewidth [2 10] 0 sd             
black n   151  1384 m   271  1384 l
col-1 s                                 
 3.750 setlinewidth [2 10] 0 sd             
black n   271  1384 m   271  1384 l
col-1 s                                 
 3.750 setlinewidth [2 10] 0 sd             
black n   271  1384 m   151  1384 l
col-1 s                                 
 3.750 setlinewidth [] 0 sd                 
black n   211  1384 m   211  1387 l
col-1 s                                 
 3.750 setlinewidth [2 10] 0 sd             
black n   151  1387 m   151  1387 l
col-1 s                                 
 3.750 setlinewidth [2 10] 0 sd             
black n   151  1387 m   271  1387 l
col-1 s                                 
 3.750 setlinewidth [2 10] 0 sd             
black n   271  1387 m   271  1387 l
col-1 s                                 
 3.750 setlinewidth [2 10] 0 sd             
black n   271  1387 m   151  1387 l
col-1 s                                 
 3.750 setlinewidth [] 0 sd                 
black n   211  1387 m   211  1392 l
col-1 s                                 
 3.750 setlinewidth [] 0 sd                 
black n   211  1392 m   211  1405 l
col-1 s                                 
 3.750 setlinewidth [] 0 sd                 
black n   211  1405 m   131  1405 l
col-1 s                                 
 3.750 setlinewidth [] 0 sd                 
black n   131  1405 m   131  1392 l
col-1 s                                 
 3.750 setlinewidth [] 0 sd                 
black n   131  1392 m   211  1392 l
col-1 s                                 
 3.750 setlinewidth [] 0 sd                 
black n   211  1405 m   211  1411 l
col-1 s                                 
 3.750 setlinewidth [] 0 sd                 
black n   211  1411 m   211  1423 l
col-1 s                                 
 3.750 setlinewidth [] 0 sd                 
black n   211  1423 m   131  1423 l
col-1 s                                 
 3.750 setlinewidth [] 0 sd                 
black n   131  1423 m   131  1411 l
col-1 s                                 
 3.750 setlinewidth [] 0 sd                 
black n   131  1411 m   211  1411 l
col-1 s                                 
 3.750 setlinewidth [] 0 sd                 
black n   211  1423 m   211  1452 l
col-1 s                                 
 3.750 setlinewidth [2 10] 0 sd             
black n   151  1452 m   151  1452 l
col-1 s                                 
 3.750 setlinewidth [2 10] 0 sd             
black n   151  1452 m   271  1452 l
col-1 s                                 
 3.750 setlinewidth [2 10] 0 sd             
black n   271  1452 m   271  1452 l
col-1 s                                 
 3.750 setlinewidth [2 10] 0 sd             
black n   271  1452 m   151  1452 l
col-1 s                                 
 3.750 setlinewidth [] 0 sd                 
black n   211  1452 m   211  1542 l
col-1 s                                 
 3.750 setlinewidth [] 0 sd                 
black n   211  1542 m   211  1550 l
col-1 s                                 
 3.750 setlinewidth [] 0 sd                 
black n   211  1550 m   291  1550 l
col-1 s                                 
 3.750 setlinewidth [] 0 sd                 
black n   291  1550 m   291  1542 l
col-1 s                                 
 3.750 setlinewidth [] 0 sd                 
black n   291  1542 m   211  1542 l
col-1 s                                 
 3.750 setlinewidth [] 0 sd                 
black n   211  1550 m   211  1556 l
col-1 s                                 
 3.750 setlinewidth [2 10] 0 sd             
black n   151  1556 m   151  1563 l
col-1 s                                 
 3.750 setlinewidth [2 10] 0 sd             
black n   151  1563 m   271  1563 l
col-1 s                                 
 3.750 setlinewidth [2 10] 0 sd             
black n   271  1563 m   271  1556 l
col-1 s                                 
 3.750 setlinewidth [2 10] 0 sd             
black n   271  1556 m   151  1556 l
col-1 s                                 
 3.750 setlinewidth [] 0 sd                 
black n   211  1563 m   211  1612 l
col-1 s                                 
 3.750 setlinewidth [] 0 sd                 
black n   211  1612 m   211  1620 l
col-1 s                                 
 3.750 setlinewidth [] 0 sd                 
black n   211  1620 m   131  1620 l
col-1 s                                 
 3.750 setlinewidth [] 0 sd                 
black n   131  1620 m   131  1612 l
col-1 s                                 
 3.750 setlinewidth [] 0 sd                 
black n   131  1612 m   211  1612 l
col-1 s                                 
 3.750 setlinewidth [] 0 sd                 
black n   211  1620 m   211  1628 l
col-1 s                                 
 3.750 setlinewidth [] 0 sd                 
black n   211  1628 m   211  1640 l
col-1 s                                 
 3.750 setlinewidth [] 0 sd                 
black n   211  1640 m   131  1640 l
col-1 s                                 
 3.750 setlinewidth [] 0 sd                 
black n   131  1640 m   131  1628 l
col-1 s                                 
 3.750 setlinewidth [] 0 sd                 
black n   131  1628 m   211  1628 l
col-1 s                                 
 3.750 setlinewidth [] 0 sd                 
black n   211  1640 m   211  1646 l
col-1 s                                 
 3.750 setlinewidth [] 0 sd                 
black n   211  1646 m   211  1654 l
col-1 s                                 
 3.750 setlinewidth [] 0 sd                 
black n   211  1654 m   131  1654 l
col-1 s                                 
 3.750 setlinewidth [] 0 sd                 
black n   131  1654 m   131  1646 l
col-1 s                                 
 3.750 setlinewidth [] 0 sd                 
black n   131  1646 m   211  1646 l
col-1 s                                 
 3.750 setlinewidth [] 0 sd                 
black n   211  1654 m   211  1715 l
col-1 s                                 
 3.750 setlinewidth [2 10] 0 sd             
black n   151  1715 m   151  1715 l
col-1 s                                 
 3.750 setlinewidth [2 10] 0 sd             
black n   151  1715 m   271  1715 l
col-1 s                                 
 3.750 setlinewidth [2 10] 0 sd             
black n   271  1715 m   271  1715 l
col-1 s                                 
 3.750 setlinewidth [2 10] 0 sd             
black n   271  1715 m   151  1715 l
col-1 s                                 
 3.750 setlinewidth [] 0 sd                 
black n   211  1715 m   211  1723 l
col-1 s                                 
 3.750 setlinewidth [] 0 sd                 
black n   211  1723 m   211  1731 l
col-1 s                                 
 3.750 setlinewidth [] 0 sd                 
black n   211  1731 m   291  1731 l
col-1 s                                 
 3.750 setlinewidth [] 0 sd                 
black n   291  1731 m   291  1723 l
col-1 s                                 
 3.750 setlinewidth [] 0 sd                 
black n   291  1723 m   211  1723 l
col-1 s                                 
 3.750 setlinewidth [] 0 sd                 
black n   211  1731 m   211  1816 l
col-1 s                                 
 3.750 setlinewidth [] 0 sd                 
black n   211  1816 m   211  1824 l
col-1 s                                 
 3.750 setlinewidth [] 0 sd                 
black n   211  1824 m   131  1824 l
col-1 s                                 
 3.750 setlinewidth [] 0 sd                 
black n   131  1824 m   131  1816 l
col-1 s                                 
 3.750 setlinewidth [] 0 sd                 
black n   131  1816 m   211  1816 l
col-1 s                                 
 3.750 setlinewidth [] 0 sd                 
black n   211  1824 m   211  1876 l
col-1 s                                 
 3.750 setlinewidth [2 10] 0 sd             
black n   151  1876 m   151  1876 l
col-1 s                                 
 3.750 setlinewidth [2 10] 0 sd             
black n   151  1876 m   271  1876 l
col-1 s                                 
 3.750 setlinewidth [2 10] 0 sd             
black n   271  1876 m   271  1876 l
col-1 s                                 
 3.750 setlinewidth [2 10] 0 sd             
black n   271  1876 m   151  1876 l
col-1 s                                 
 3.750 setlinewidth [] 0 sd                 
black n   211  1876 m   211  1908 l
col-1 s                                 
 3.750 setlinewidth [] 0 sd                 
black n   211  1908 m   211  1917 l
col-1 s                                 
 3.750 setlinewidth [] 0 sd                 
black n   211  1917 m   291  1917 l
col-1 s                                 
 3.750 setlinewidth [] 0 sd                 
black n   291  1917 m   291  1908 l
col-1 s                                 
 3.750 setlinewidth [] 0 sd                 
black n   291  1908 m   211  1908 l
col-1 s                                 
 3.750 setlinewidth [] 0 sd                 
black n   211  1917 m   211  2001 l
col-1 s                                 
 3.750 setlinewidth [] 0 sd                 
black n   211  2001 m   211  2009 l
col-1 s                                 
 3.750 setlinewidth [] 0 sd                 
black n   211  2009 m   131  2009 l
col-1 s                                 
 3.750 setlinewidth [] 0 sd                 
black n   131  2009 m   131  2001 l
col-1 s                                 
 3.750 setlinewidth [] 0 sd                 
black n   131  2001 m   211  2001 l
col-1 s                                 
 3.750 setlinewidth [] 0 sd                 
black n   211  2009 m   211  2094 l
col-1 s                                 
 3.750 setlinewidth [] 0 sd                 
black n   211  2094 m   211  2102 l
col-1 s                                 
 3.750 setlinewidth [] 0 sd                 
black n   211  2102 m   291  2102 l
col-1 s                                 
 3.750 setlinewidth [] 0 sd                 
black n   291  2102 m   291  2094 l
col-1 s                                 
 3.750 setlinewidth [] 0 sd                 
black n   291  2094 m   211  2094 l
col-1 s                                 
 3.750 setlinewidth [] 0 sd                 
black n   211  2102 m   211  2187 l
col-1 s                                 
 3.750 setlinewidth [] 0 sd                 
black n   211  2187 m   211  2195 l
col-1 s                                 
 3.750 setlinewidth [] 0 sd                 
black n   211  2195 m   131  2195 l
col-1 s                                 
 3.750 setlinewidth [] 0 sd                 
black n   131  2195 m   131  2187 l
col-1 s                                 
 3.750 setlinewidth [] 0 sd                 
black n   131  2187 m   211  2187 l
col-1 s                                 
 3.750 setlinewidth [] 0 sd                 
black n   211  2195 m   211  2201 l
col-1 s                                 
 3.750 setlinewidth [] 0 sd                 
black n   161  2201 m   161  2227 l
col-1 s                                 
 3.750 setlinewidth [] 0 sd                 
black n   161  2227 m   261  2227 l
col-1 s                                 
 3.750 setlinewidth [] 0 sd                 
black n   261  2227 m   261  2201 l
col-1 s                                 
 3.750 setlinewidth [] 0 sd                 
black n   261  2201 m   161  2201 l
col-1 s                                 
 3.750 setlinewidth [] 0 sd                 
black n   211  2227 m   211  2234 l
col-1 s                                 
 3.750 setlinewidth [] 0 sd                 
black n   161  2234 m   161  2260 l
col-1 s                                 
 3.750 setlinewidth [] 0 sd                 
black n   161  2260 m   261  2260 l
col-1 s                                 
 3.750 setlinewidth [] 0 sd                 
black n   261  2260 m   261  2234 l
col-1 s                                 
 3.750 setlinewidth [] 0 sd                 
black n   261  2234 m   161  2234 l
col-1 s                                 
 3.750 setlinewidth [] 0 sd                 
black n   211  2260 m   211  2271 l
col-1 s                                 
 3.750 setlinewidth [2 10] 0 sd             
black n   151  2271 m   151  2274 l
col-1 s                                 
 3.750 setlinewidth [2 10] 0 sd             
black n   151  2274 m   271  2274 l
col-1 s                                 
 3.750 setlinewidth [2 10] 0 sd             
black n   271  2274 m   271  2271 l
col-1 s                                 
 3.750 setlinewidth [2 10] 0 sd             
black n   271  2271 m   151  2271 l
col-1 s                                 
 3.750 setlinewidth [] 0 sd                 
black n   211  2274 m   211  2293 l
col-1 s                                 
 3.750 setlinewidth [] 0 sd                 
black n   211  2293 m   211  2301 l
col-1 s                                 
 3.750 setlinewidth [] 0 sd                 
black n   211  2301 m   131  2301 l
col-1 s                                 
 3.750 setlinewidth [] 0 sd                 
black n   131  2301 m   131  2293 l
col-1 s                                 
 3.750 setlinewidth [] 0 sd                 
black n   131  2293 m   211  2293 l
col-1 s                                 
 3.750 setlinewidth [] 0 sd                 
black n   211  2301 m   211  2303 l
col-1 s                                 
 3.750 setlinewidth [2 10] 0 sd             
black n   151  2303 m   151  2308 l
col-1 s                                 
 3.750 setlinewidth [2 10] 0 sd             
black n   151  2308 m   271  2308 l
col-1 s                                 
 3.750 setlinewidth [2 10] 0 sd             
black n   271  2308 m   271  2303 l
col-1 s                                 
 3.750 setlinewidth [2 10] 0 sd             
black n   271  2303 m   151  2303 l
col-1 s                                 
 3.750 setlinewidth [] 0 sd                 
black n   211  2308 m   211  2311 l
col-1 s                                 
 3.750 setlinewidth [] 0 sd                 
black n   161  2311 m   161  2331 l
col-1 s                                 
 3.750 setlinewidth [] 0 sd                 
black n   161  2331 m   261  2331 l
col-1 s                                 
 3.750 setlinewidth [] 0 sd                 
black n   261  2331 m   261  2311 l
col-1 s                                 
 3.750 setlinewidth [] 0 sd                 
black n   261  2311 m   161  2311 l
col-1 s                                 
 3.750 setlinewidth [] 0 sd                 
black n   211  2331 m   211  2337 l
col-1 s                                 
 3.750 setlinewidth [] 0 sd                 
black n   161  2337 m   161  2357 l
col-1 s                                 
 3.750 setlinewidth [] 0 sd                 
black n   161  2357 m   261  2357 l
col-1 s                                 
 3.750 setlinewidth [] 0 sd                 
black n   261  2357 m   261  2337 l
col-1 s                                 
 3.750 setlinewidth [] 0 sd                 
black n   261  2337 m   161  2337 l
col-1 s                                 
 3.750 setlinewidth [] 0 sd                 
black n   211  2357 m   211  2458 l
col-1 s                                 
 3.750 setlinewidth [] 0 sd                 
black n   211  2458 m   211  2466 l
col-1 s                                 
 3.750 setlinewidth [] 0 sd                 
black n   211  2466 m   131  2466 l
col-1 s                                 
 3.750 setlinewidth [] 0 sd                 
black n   131  2466 m   131  2458 l
col-1 s                                 
 3.750 setlinewidth [] 0 sd                 
black n   131  2458 m   211  2458 l
col-1 s                                 
 3.750 setlinewidth [] 0 sd                 
black n   211  2466 m   211  2469 l
col-1 s                                 
 3.750 setlinewidth [2 10] 0 sd             
black n   151  2469 m   151  2482 l
col-1 s                                 
 3.750 setlinewidth [2 10] 0 sd             
black n   151  2482 m   271  2482 l
col-1 s                                 
 3.750 setlinewidth [2 10] 0 sd             
black n   271  2482 m   271  2469 l
col-1 s                                 
 3.750 setlinewidth [2 10] 0 sd             
black n   271  2469 m   151  2469 l
col-1 s                                 
 3.750 setlinewidth [] 0 sd                 
black n   211  2482 m   211  2485 l
col-1 s                                 
 3.750 setlinewidth [2 10] 0 sd             
black n   151  2485 m   151  2498 l
col-1 s                                 
 3.750 setlinewidth [2 10] 0 sd             
black n   151  2498 m   271  2498 l
col-1 s                                 
 3.750 setlinewidth [2 10] 0 sd             
black n   271  2498 m   271  2485 l
col-1 s                                 
 3.750 setlinewidth [2 10] 0 sd             
black n   271  2485 m   151  2485 l
col-1 s                                 
 3.750 setlinewidth [] 0 sd                 
black n   211  2498 m   211  2513 l
col-1 s                                 
 3.750 setlinewidth [2 10] 0 sd             
black n   151  2513 m   151  2518 l
col-1 s                                 
 3.750 setlinewidth [2 10] 0 sd             
black n   151  2518 m   271  2518 l
col-1 s                                 
 3.750 setlinewidth [2 10] 0 sd             
black n   271  2518 m   271  2513 l
col-1 s                                 
 3.750 setlinewidth [2 10] 0 sd             
black n   271  2513 m   151  2513 l
col-1 s                                 
 3.750 setlinewidth [] 0 sd                 
black n   211  2518 m   211  2519 l
col-1 s                                 
 3.750 setlinewidth [] 0 sd                 
black n   151  2519 m   151  2523 l
col-1 s                                 
 3.750 setlinewidth [] 0 sd                 
black n   151  2523 m   271  2523 l
col-1 s                                 
 3.750 setlinewidth [] 0 sd                 
black n   271  2523 m   271  2519 l
col-1 s                                 
 3.750 setlinewidth [] 0 sd                 
black n   271  2519 m   151  2519 l
col-1 s                                 
 3.750 setlinewidth [] 0 sd                 
black n   211  2523 m   211  2525 l
col-1 s                                 
 3.750 setlinewidth [] 0 sd                 
black n   151  2525 m   151  2529 l
col-1 s                                 
 3.750 setlinewidth [] 0 sd                 
black n   151  2529 m   271  2529 l
col-1 s                                 
 3.750 setlinewidth [] 0 sd                 
black n   271  2529 m   271  2525 l
col-1 s                                 
 3.750 setlinewidth [] 0 sd                 
black n   271  2525 m   151  2525 l
col-1 s                                 
 3.750 setlinewidth [] 0 sd                 
black n   211  2529 m   211  2531 l
col-1 s                                 
 3.750 setlinewidth [] 0 sd                 
black n   211  2531 m   211  2540 l
col-1 s                                 
 3.750 setlinewidth [] 0 sd                 
black n   211  2540 m   291  2540 l
col-1 s                                 
 3.750 setlinewidth [] 0 sd                 
black n   291  2540 m   291  2531 l
col-1 s                                 
 3.750 setlinewidth [] 0 sd                 
black n   291  2531 m   211  2531 l
col-1 s                                 
 3.750 setlinewidth [] 0 sd                 
black n   211  2540 m   211  2542 l
col-1 s                                 
 3.750 setlinewidth [2 10] 0 sd             
black n   151  2542 m   151  2546 l
col-1 s                                 
 3.750 setlinewidth [2 10] 0 sd             
black n   151  2546 m   271  2546 l
col-1 s                                 
 3.750 setlinewidth [2 10] 0 sd             
black n   271  2546 m   271  2542 l
col-1 s                                 
 3.750 setlinewidth [2 10] 0 sd             
black n   271  2542 m   151  2542 l
col-1 s                                 
 3.750 setlinewidth [] 0 sd                 
black n   211  2546 m   211  2608 l
col-1 s                                 
 3.750 setlinewidth [] 0 sd                 
black n   211  2608 m   211  2616 l
col-1 s                                 
 3.750 setlinewidth [] 0 sd                 
black n   211  2616 m   131  2616 l
col-1 s                                 
 3.750 setlinewidth [] 0 sd                 
black n   131  2616 m   131  2608 l
col-1 s                                 
 3.750 setlinewidth [] 0 sd                 
black n   131  2608 m   211  2608 l
col-1 s                                 
 3.750 setlinewidth [] 0 sd                 
black n   211  2616 m   211  2681 l
col-1 s                                 
 3.750 setlinewidth [2 10] 0 sd             
black n   151  2681 m   151  2685 l
col-1 s                                 
 3.750 setlinewidth [2 10] 0 sd             
black n   151  2685 m   271  2685 l
col-1 s                                 
 3.750 setlinewidth [2 10] 0 sd             
black n   271  2685 m   271  2681 l
col-1 s                                 
 3.750 setlinewidth [2 10] 0 sd             
black n   271  2681 m   151  2681 l
col-1 s                                 
 3.750 setlinewidth [] 0 sd                 
black n   211  2685 m   211  2686 l
col-1 s                                 
 3.750 setlinewidth [] 0 sd                 
black n   161  2686 m   161  2691 l
col-1 s                                 
 3.750 setlinewidth [] 0 sd                 
black n   161  2691 m   261  2691 l
col-1 s                                 
 3.750 setlinewidth [] 0 sd                 
black n   261  2691 m   261  2686 l
col-1 s                                 
 3.750 setlinewidth [] 0 sd                 
black n   261  2686 m   161  2686 l
col-1 s                                 
 3.750 setlinewidth [] 0 sd                 
black n   211  2691 m   211  2697 l
col-1 s                                 
 3.750 setlinewidth [] 0 sd                 
black n   161  2697 m   161  2716 l
col-1 s                                 
 3.750 setlinewidth [] 0 sd                 
black n   161  2716 m   261  2716 l
col-1 s                                 
 3.750 setlinewidth [] 0 sd                 
black n   261  2716 m   261  2697 l
col-1 s                                 
 3.750 setlinewidth [] 0 sd                 
black n   261  2697 m   161  2697 l
col-1 s                                 
 3.750 setlinewidth [] 0 sd                 
black n   211  2716 m   211  2720 l
col-1 s                                 
 3.750 setlinewidth [] 0 sd                 
black n   151  2720 m   151  2724 l
col-1 s                                 
 3.750 setlinewidth [] 0 sd                 
black n   151  2724 m   271  2724 l
col-1 s                                 
 3.750 setlinewidth [] 0 sd                 
black n   271  2724 m   271  2720 l
col-1 s                                 
 3.750 setlinewidth [] 0 sd                 
black n   271  2720 m   151  2720 l
col-1 s                                 
 3.750 setlinewidth [] 0 sd                 
black n   211  2724 m   211  2745 l
col-1 s                                 
 3.750 setlinewidth [] 0 sd                 
black n   211  2745 m   211  2755 l
col-1 s                                 
 3.750 setlinewidth [] 0 sd                 
black n   211  2755 m   291  2755 l
col-1 s                                 
 3.750 setlinewidth [] 0 sd                 
black n   291  2755 m   291  2745 l
col-1 s                                 
 3.750 setlinewidth [] 0 sd                 
black n   291  2745 m   211  2745 l
col-1 s                                 
 3.750 setlinewidth [] 0 sd                 
black n   211  2755 m   211  2760 l
col-1 s                                 
 3.750 setlinewidth [] 0 sd                 
black n   211  2760 m   211  2770 l
col-1 s                                 
 3.750 setlinewidth [] 0 sd                 
black n   211  2770 m   131  2770 l
col-1 s                                 
 3.750 setlinewidth [] 0 sd                 
black n   131  2770 m   131  2760 l
col-1 s                                 
 3.750 setlinewidth [] 0 sd                 
black n   131  2760 m   211  2760 l
col-1 s                                 
 3.750 setlinewidth [] 0 sd                 
black n   211  2770 m   211  2793 l
col-1 s                                 
 3.750 setlinewidth [2 10] 0 sd             
black n   151  2793 m   151  2793 l
col-1 s                                 
 3.750 setlinewidth [2 10] 0 sd             
black n   151  2793 m   271  2793 l
col-1 s                                 
 3.750 setlinewidth [2 10] 0 sd             
black n   271  2793 m   271  2793 l
col-1 s                                 
 3.750 setlinewidth [2 10] 0 sd             
black n   271  2793 m   151  2793 l
col-1 s                                 
 3.750 setlinewidth [2 10] 0 sd             
black n   151  2793 m   151  2795 l
col-1 s                                 
 3.750 setlinewidth [2 10] 0 sd             
black n   151  2795 m   271  2795 l
col-1 s                                 
 3.750 setlinewidth [2 10] 0 sd             
black n   271  2795 m   271  2793 l
col-1 s                                 
 3.750 setlinewidth [2 10] 0 sd             
black n   271  2793 m   151  2793 l
col-1 s                                 
 3.750 setlinewidth [] 0 sd                 
black n   211  2795 m   211  2800 l
col-1 s                                 
$GX11psEnd showpage
%%EOF
