%!PS-Adobe-2.0 EPSF-2.0
%%Title: ../out/madx102.eps
%%Creator: gx11 version  1.50
%%CreationDate: 19/07/02 11:13
%%Orientation: Landscape
%%BoundingBox:  17  30 573 790
%%Pages: 0
%%EndComments
/$GX11psDict 200 dict def
$GX11psDict begin
$GX11psDict /mtrx matrix put /l {lineto} bind def
/m {moveto} bind def /s {stroke} bind def
/n {newpath} bind def /gs {gsave} bind def
/gr {grestore} bind def /clp {closepath} bind def
/t {translate} bind def /sd {setdash} bind def
/fft {findfont} bind def /col-1 {} def /r {rotate} bind def
/sf {scalefont setfont} bind def /sw {stringwidth} bind def
/stwn { /fs exch def /fn exch def /text exch def fn findfont
fs sf text sw pop xs add /xs exch def} bind def
/black {0 0 0 setrgbcolor} bind def
/blue {0 0 1 setrgbcolor} bind def
/green {0 1 0 setrgbcolor} bind def
/cyan {0 1 1 setrgbcolor} bind def
/red {1 0 0 setrgbcolor} bind def
/magenta {1 0 1 setrgbcolor} bind def
/yellow {1 1 0 setrgbcolor} bind def
/white {1 1 1 setrgbcolor} bind def
        end
/$GX11psBegin
     {$GX11psDict begin /$GX11psEnteredState save def} def
/$GX11psEnd {$GX11psEnteredState restore end} def
%%EndProlog
$GX11psBegin
0 setlinecap 0 setlinejoin
  0.250  0.250 scale

 3.750 setlinewidth [] 0 sd                 
black n  1953   738 m  1953  2835 l
col-1 s                                 
 3.750 setlinewidth [] 0 sd                 
black n  1953   738 m  1971   738 l
col-1 s                                 
 3.750 setlinewidth [] 0 sd                 
black n  1953   843 m  1962   843 l
col-1 s                                 
 3.750 setlinewidth [] 0 sd                 
black n  1953   948 m  1971   948 l
col-1 s                                 
 3.750 setlinewidth [] 0 sd                 
black n  1953  1053 m  1962  1053 l
col-1 s                                 
 3.750 setlinewidth [] 0 sd                 
black n  1953  1158 m  1971  1158 l
col-1 s                                 
 3.750 setlinewidth [] 0 sd                 
black n  1953  1262 m  1962  1262 l
col-1 s                                 
 3.750 setlinewidth [] 0 sd                 
black n  1953  1367 m  1971  1367 l
col-1 s                                 
 3.750 setlinewidth [] 0 sd                 
black n  1953  1472 m  1962  1472 l
col-1 s                                 
 3.750 setlinewidth [] 0 sd                 
black n  1953  1577 m  1971  1577 l
col-1 s                                 
 3.750 setlinewidth [] 0 sd                 
black n  1953  1682 m  1962  1682 l
col-1 s                                 
 3.750 setlinewidth [] 0 sd                 
black n  1953  1787 m  1971  1787 l
col-1 s                                 
 3.750 setlinewidth [] 0 sd                 
black n  1953  1891 m  1962  1891 l
col-1 s                                 
 3.750 setlinewidth [] 0 sd                 
black n  1953  1996 m  1971  1996 l
col-1 s                                 
 3.750 setlinewidth [] 0 sd                 
black n  1953  2101 m  1962  2101 l
col-1 s                                 
 3.750 setlinewidth [] 0 sd                 
black n  1953  2206 m  1971  2206 l
col-1 s                                 
 3.750 setlinewidth [] 0 sd                 
black n  1953  2311 m  1962  2311 l
col-1 s                                 
 3.750 setlinewidth [] 0 sd                 
black n  1953  2416 m  1971  2416 l
col-1 s                                 
 3.750 setlinewidth [] 0 sd                 
black n  1953  2521 m  1962  2521 l
col-1 s                                 
 3.750 setlinewidth [] 0 sd                 
black n  1953  2625 m  1971  2625 l
col-1 s                                 
 3.750 setlinewidth [] 0 sd                 
black n  1953  2730 m  1962  2730 l
col-1 s                                 
 3.750 setlinewidth [] 0 sd                 
black n  1953  2835 m  1971  2835 l
col-1 s                                 
/xs 0 def
(0.0)
/Times-Italic    87 stwn
black 2042  738 t    90 r xs 2 div neg 0 t 0 0 m
/Times-Italic fft     87 sf 0 0 m
(0.0)
show xs 2 div 0 t 0 0 m   -90 r -2042  -738 t
/xs 0 def
(40.)
/Times-Italic    87 stwn
black 2042 1158 t    90 r xs 2 div neg 0 t 0 0 m
/Times-Italic fft     87 sf 0 0 m
(40.)
show xs 2 div 0 t 0 0 m   -90 r -2042 -1158 t
/xs 0 def
(80.)
/Times-Italic    87 stwn
black 2042 1577 t    90 r xs 2 div neg 0 t 0 0 m
/Times-Italic fft     87 sf 0 0 m
(80.)
show xs 2 div 0 t 0 0 m   -90 r -2042 -1577 t
/xs 0 def
(120.)
/Times-Italic    87 stwn
black 2042 1996 t    90 r xs 2 div neg 0 t 0 0 m
/Times-Italic fft     87 sf 0 0 m
(120.)
show xs 2 div 0 t 0 0 m   -90 r -2042 -1996 t
/xs 0 def
(160.)
/Times-Italic    87 stwn
black 2042 2416 t    90 r xs 2 div neg 0 t 0 0 m
/Times-Italic fft     87 sf 0 0 m
(160.)
show xs 2 div 0 t 0 0 m   -90 r -2042 -2416 t
/xs 0 def
(200.)
/Times-Italic    87 stwn
black 2042 2835 t    90 r xs 2 div neg 0 t 0 0 m
/Times-Italic fft     87 sf 0 0 m
(200.)
show xs 2 div 0 t 0 0 m   -90 r -2042 -2835 t
black 2142  738 t    90 r
/Times-Italic fft     77 sf 0 0 m
(                               s \(m\))
show   -90 r -2142  -738 t
 3.750 setlinewidth [] 0 sd                 
black n  405  738 m   405  2835 l
col-1 s                                 
 3.750 setlinewidth [] 0 sd                 
black n  405  738 m  423  738 l
col-1 s                                 
 3.750 setlinewidth [] 0 sd                 
black n  405  843 m  414  843 l
col-1 s                                 
 3.750 setlinewidth [] 0 sd                 
black n  405  948 m  423  948 l
col-1 s                                 
 3.750 setlinewidth [] 0 sd                 
black n   405  1053 m   414  1053 l
col-1 s                                 
 3.750 setlinewidth [] 0 sd                 
black n   405  1158 m   423  1158 l
col-1 s                                 
 3.750 setlinewidth [] 0 sd                 
black n   405  1262 m   414  1262 l
col-1 s                                 
 3.750 setlinewidth [] 0 sd                 
black n   405  1367 m   423  1367 l
col-1 s                                 
 3.750 setlinewidth [] 0 sd                 
black n   405  1472 m   414  1472 l
col-1 s                                 
 3.750 setlinewidth [] 0 sd                 
black n   405  1577 m   423  1577 l
col-1 s                                 
 3.750 setlinewidth [] 0 sd                 
black n   405  1682 m   414  1682 l
col-1 s                                 
 3.750 setlinewidth [] 0 sd                 
black n   405  1787 m   423  1787 l
col-1 s                                 
 3.750 setlinewidth [] 0 sd                 
black n   405  1891 m   414  1891 l
col-1 s                                 
 3.750 setlinewidth [] 0 sd                 
black n   405  1996 m   423  1996 l
col-1 s                                 
 3.750 setlinewidth [] 0 sd                 
black n   405  2101 m   414  2101 l
col-1 s                                 
 3.750 setlinewidth [] 0 sd                 
black n   405  2206 m   423  2206 l
col-1 s                                 
 3.750 setlinewidth [] 0 sd                 
black n   405  2311 m   414  2311 l
col-1 s                                 
 3.750 setlinewidth [] 0 sd                 
black n   405  2416 m   423  2416 l
col-1 s                                 
 3.750 setlinewidth [] 0 sd                 
black n   405  2521 m   414  2521 l
col-1 s                                 
 3.750 setlinewidth [] 0 sd                 
black n   405  2625 m   423  2625 l
col-1 s                                 
 3.750 setlinewidth [] 0 sd                 
black n   405  2730 m   414  2730 l
col-1 s                                 
 3.750 setlinewidth [] 0 sd                 
black n   405  2835 m   423  2835 l
col-1 s                                 
black  384  738 t    90 r
/Times-Italic fft     77 sf 0 0 m
(TT2/FTA optics. Protons - 26 GeV/c)
show   -90 r  -384  -738 t
/xs 0 def
(MAD-X 5.02.06  02/07/19 11.13.35)
/Times-Italic    77 stwn
black  384 2835 t    90 r xs neg 0 t 0 0 m
/Times-Italic fft     77 sf 0 0 m
(MAD-X 5.02.06  02/07/19 11.13.35)
show xs 0 t 0 0 m   -90 r  -384 -2835 t
 3.750 setlinewidth [] 0 sd                 
black n  1953   738 m  405  738 l
col-1 s                                 
 3.750 setlinewidth [] 0 sd                 
black n  1953   738 m  1953   714 l
col-1 s                                 
 3.750 setlinewidth [] 0 sd                 
black n  1876   738 m  1876   726 l
col-1 s                                 
 3.750 setlinewidth [] 0 sd                 
black n  1798   738 m  1798   714 l
col-1 s                                 
 3.750 setlinewidth [] 0 sd                 
black n  1721   738 m  1721   726 l
col-1 s                                 
 3.750 setlinewidth [] 0 sd                 
black n  1644   738 m  1644   714 l
col-1 s                                 
 3.750 setlinewidth [] 0 sd                 
black n  1566   738 m  1566   726 l
col-1 s                                 
 3.750 setlinewidth [] 0 sd                 
black n  1489   738 m  1489   714 l
col-1 s                                 
 3.750 setlinewidth [] 0 sd                 
black n  1411   738 m  1411   726 l
col-1 s                                 
 3.750 setlinewidth [] 0 sd                 
black n  1334   738 m  1334   714 l
col-1 s                                 
 3.750 setlinewidth [] 0 sd                 
black n  1256   738 m  1256   726 l
col-1 s                                 
 3.750 setlinewidth [] 0 sd                 
black n  1179   738 m  1179   714 l
col-1 s                                 
 3.750 setlinewidth [] 0 sd                 
black n  1102   738 m  1102   726 l
col-1 s                                 
 3.750 setlinewidth [] 0 sd                 
black n  1024   738 m  1024   714 l
col-1 s                                 
 3.750 setlinewidth [] 0 sd                 
black n  947  738 m  947  726 l
col-1 s                                 
 3.750 setlinewidth [] 0 sd                 
black n  869  738 m  869  714 l
col-1 s                                 
 3.750 setlinewidth [] 0 sd                 
black n  792  738 m  792  726 l
col-1 s                                 
 3.750 setlinewidth [] 0 sd                 
black n  714  738 m  714  714 l
col-1 s                                 
 3.750 setlinewidth [] 0 sd                 
black n  637  738 m  637  726 l
col-1 s                                 
 3.750 setlinewidth [] 0 sd                 
black n  559  738 m  559  714 l
col-1 s                                 
 3.750 setlinewidth [] 0 sd                 
black n  482  738 m  482  726 l
col-1 s                                 
 3.750 setlinewidth [] 0 sd                 
black n  405  738 m  405  714 l
col-1 s                                 
/xs 0 def
(-5.)
/Times-Italic    87 stwn
black 1977  678 t    90 r xs neg 0 t 0 0 m
/Times-Italic fft     87 sf 0 0 m
(-5.)
show xs 0 t 0 0 m   -90 r -1977  -678 t
/xs 0 def
(-4.)
/Times-Italic    87 stwn
black 1822  678 t    90 r xs neg 0 t 0 0 m
/Times-Italic fft     87 sf 0 0 m
(-4.)
show xs 0 t 0 0 m   -90 r -1822  -678 t
/xs 0 def
(-3.)
/Times-Italic    87 stwn
black 1667  678 t    90 r xs neg 0 t 0 0 m
/Times-Italic fft     87 sf 0 0 m
(-3.)
show xs 0 t 0 0 m   -90 r -1667  -678 t
/xs 0 def
(-2.)
/Times-Italic    87 stwn
black 1512  678 t    90 r xs neg 0 t 0 0 m
/Times-Italic fft     87 sf 0 0 m
(-2.)
show xs 0 t 0 0 m   -90 r -1512  -678 t
/xs 0 def
(-1.)
/Times-Italic    87 stwn
black 1357  678 t    90 r xs neg 0 t 0 0 m
/Times-Italic fft     87 sf 0 0 m
(-1.)
show xs 0 t 0 0 m   -90 r -1357  -678 t
/xs 0 def
(0.0)
/Times-Italic    87 stwn
black 1202  678 t    90 r xs neg 0 t 0 0 m
/Times-Italic fft     87 sf 0 0 m
(0.0)
show xs 0 t 0 0 m   -90 r -1202  -678 t
/xs 0 def
(1.)
/Times-Italic    87 stwn
black 1048  678 t    90 r xs neg 0 t 0 0 m
/Times-Italic fft     87 sf 0 0 m
(1.)
show xs 0 t 0 0 m   -90 r -1048  -678 t
/xs 0 def
(2.)
/Times-Italic    87 stwn
black  893  678 t    90 r xs neg 0 t 0 0 m
/Times-Italic fft     87 sf 0 0 m
(2.)
show xs 0 t 0 0 m   -90 r  -893  -678 t
/xs 0 def
(3.)
/Times-Italic    87 stwn
black  738  678 t    90 r xs neg 0 t 0 0 m
/Times-Italic fft     87 sf 0 0 m
(3.)
show xs 0 t 0 0 m   -90 r  -738  -678 t
/xs 0 def
(4.)
/Times-Italic    87 stwn
black  583  678 t    90 r xs neg 0 t 0 0 m
/Times-Italic fft     87 sf 0 0 m
(4.)
show xs 0 t 0 0 m   -90 r  -583  -678 t
/xs 0 def
(5.)
/Times-Italic    87 stwn
black  428  678 t    90 r xs neg 0 t 0 0 m
/Times-Italic fft     87 sf 0 0 m
(5.)
show xs 0 t 0 0 m   -90 r  -428  -678 t
/xs 0 def
(disp1, disp3)
/Times-Italic    77 stwn
black  446  331 t   180 r xs neg 0 t 0 0 m
/Times-Italic fft     77 sf 0 0 m
(disp1, disp3)
show xs 0 t 0 0 m  -180 r  -446  -331 t
 3.750 setlinewidth [] 0 sd                 
black n  1953  2835 m   405  2835 l
col-1 s                                 
 3.750 setlinewidth [] 0 sd                 
black n  1953  2835 m  1953  2811 l
col-1 s                                 
 3.750 setlinewidth [] 0 sd                 
black n  1876  2835 m  1876  2823 l
col-1 s                                 
 3.750 setlinewidth [] 0 sd                 
black n  1798  2835 m  1798  2811 l
col-1 s                                 
 3.750 setlinewidth [] 0 sd                 
black n  1721  2835 m  1721  2823 l
col-1 s                                 
 3.750 setlinewidth [] 0 sd                 
black n  1644  2835 m  1644  2811 l
col-1 s                                 
 3.750 setlinewidth [] 0 sd                 
black n  1566  2835 m  1566  2823 l
col-1 s                                 
 3.750 setlinewidth [] 0 sd                 
black n  1489  2835 m  1489  2811 l
col-1 s                                 
 3.750 setlinewidth [] 0 sd                 
black n  1411  2835 m  1411  2823 l
col-1 s                                 
 3.750 setlinewidth [] 0 sd                 
black n  1334  2835 m  1334  2811 l
col-1 s                                 
 3.750 setlinewidth [] 0 sd                 
black n  1256  2835 m  1256  2823 l
col-1 s                                 
 3.750 setlinewidth [] 0 sd                 
black n  1179  2835 m  1179  2811 l
col-1 s                                 
 3.750 setlinewidth [] 0 sd                 
black n  1102  2835 m  1102  2823 l
col-1 s                                 
 3.750 setlinewidth [] 0 sd                 
black n  1024  2835 m  1024  2811 l
col-1 s                                 
 3.750 setlinewidth [] 0 sd                 
black n   947  2835 m   947  2823 l
col-1 s                                 
 3.750 setlinewidth [] 0 sd                 
black n   869  2835 m   869  2811 l
col-1 s                                 
 3.750 setlinewidth [] 0 sd                 
black n   792  2835 m   792  2823 l
col-1 s                                 
 3.750 setlinewidth [] 0 sd                 
black n   714  2835 m   714  2811 l
col-1 s                                 
 3.750 setlinewidth [] 0 sd                 
black n   637  2835 m   637  2823 l
col-1 s                                 
 3.750 setlinewidth [] 0 sd                 
black n   559  2835 m   559  2811 l
col-1 s                                 
 3.750 setlinewidth [] 0 sd                 
black n   482  2835 m   482  2823 l
col-1 s                                 
 3.750 setlinewidth [] 0 sd                 
black n   405  2835 m   405  2811 l
col-1 s                                 
 3.750 setlinewidth [] 0 sd                 
black n  598  738 m  590  745 l  662  774 l  669  777 l  690  785 l
  731  802 l  777  822 l  793  829 l  795  842 l  781  849 l
  736  872 l  723  879 l  710  885 l  689  896 l  696  909 l
  709  913 l  726  918 l  754  927 l  775  934 l  834  953 l
  856  960 l  1080  1036 l  1113  1049 l  1156  1067 l  1174  1074 l
  1192  1082 l  1244  1104 l  1301  1128 l  1313  1133 l  1329  1140 l
  1354  1152 l  1366  1160 l  1390  1174 l  1417  1191 l  1456  1214 l
  1473  1224 l  1491  1234 l  1528  1247 l  1552  1252 l  1817  1315 l
  1843  1321 l  1858  1325 l  1882  1330 l  1896  1343 l  1882  1350 l
  1857  1362 l  1814  1384 l  1798  1392 l  1715  1434 l  1646  1468 l
  1609  1486 l  1607  1495 l  1615  1501 l  1627  1509 l  1659  1531 l
  1701  1559 l  1713  1567 l  1726  1576 l  1717  1589 l  1697  1595 l
  1672  1604 l  1524  1653 l  1483  1667 l  1459  1675 l  1443  1683 l
  1370  1772 l  1357  1780 l  1229  1835 l  1170  1860 l  1150  1869 l
  1129  1877 l   895  1965 l   882  1974 l   860  2055 l   858  2062 l
   845  2071 l   586  2159 l   582  2167 l   594  2174 l   639  2201 l
   650  2208 l   679  2236 l   680  2237 l   684  2242 l   688  2247 l
   691  2249 l   706  2269 l   713  2278 l   715  2281 l   720  2286 l
   722  2288 l   733  2309 l   735  2316 l   735  2336 l   731  2352 l
   722  2391 l   713  2430 l   710  2442 l   708  2450 l   707  2454 l
col-1 s                                 
 3.750 setlinewidth [] 0 sd                 
black n   707  2454 m   704  2467 l   704  2470 l   700  2484 l
   697  2499 l   696  2504 l   695  2506 l   694  2509 l   694  2512 l
   693  2515 l   692  2518 l   675  2527 l   668  2529 l   650  2534 l
   646  2535 l   410  2597 l   406  2598 l   413  2607 l   418  2608 l
   775  2673 l   780  2674 l   802  2678 l   807  2679 l   837  2685 l
   852  2688 l   868  2691 l   979  2711 l  1002  2715 l  1021  2719 l
  1060  2726 l  1100  2733 l  1139  2741 l  1194  2752 l  1217  2756 l
  1254  2767 l  1290  2791 l  1294  2794 l  1301  2798 l
col-1 s                                 
/xs 0 def
(disp1)
/Times-Italic   100 stwn
black  521  935 t    90 r xs 2 div neg 0 t 0 0 m
/Times-Italic fft    100 sf 0 0 m
(disp1)
show xs 2 div 0 t 0 0 m   -90 r  -521  -935 t
 3.750 setlinewidth [2 10] 0 sd             
black n  521  935 m  778  935 l
col-1 s                                 
 3.750 setlinewidth [20] 0 sd               
red n  1193   738 m  1183   745 l  1141   774 l  1136   777 l
  1124   785 l  1100   802 l  1072   822 l  1062   829 l  1052   842 l
  1051   849 l  1052   872 l  1054   879 l  1055   885 l  1057   896 l
  1051   909 l  1047   913 l  1041   918 l  1031   927 l  1024   934 l
  1002   953 l  994  960 l   911  1036 l   910  1049 l   926  1067 l
   932  1074 l   939  1082 l   958  1104 l   979  1128 l   984  1133 l
   990  1140 l   995  1152 l   995  1160 l   994  1174 l   994  1191 l
   990  1214 l   987  1224 l   984  1234 l   990  1247 l   996  1252 l
  1072  1315 l  1080  1321 l  1084  1325 l  1091  1330 l  1101  1343 l
  1104  1350 l  1111  1362 l  1121  1384 l  1125  1392 l  1145  1434 l
  1162  1468 l  1171  1486 l  1176  1495 l  1179  1501 l  1183  1509 l
  1195  1531 l  1210  1559 l  1214  1567 l  1219  1576 l  1228  1589 l
  1234  1595 l  1241  1604 l  1286  1653 l  1298  1667 l  1305  1675 l
  1309  1683 l  1297  1772 l  1300  1780 l  1346  1835 l  1367  1860 l
  1374  1869 l  1375  1877 l  1310  1965 l  1309  1974 l  1336  2055 l
  1338  2062 l  1335  2071 l  1250  2159 l  1245  2167 l  1242  2174 l
  1233  2201 l  1231  2208 l  1226  2236 l  1226  2237 l  1226  2242 l
  1225  2247 l  1225  2249 l  1223  2269 l  1222  2278 l  1221  2281 l
  1221  2286 l  1221  2288 l  1220  2309 l  1221  2316 l  1225  2336 l
  1230  2352 l  1242  2391 l  1254  2430 l  1257  2442 l  1260  2450 l
  1261  2454 l
col-1 s                                 
 3.750 setlinewidth [20] 0 sd               
red n  1261  2454 m  1265  2467 l  1266  2470 l  1270  2484 l
  1275  2499 l  1276  2504 l  1277  2506 l  1278  2509 l  1279  2512 l
  1280  2515 l  1280  2518 l  1280  2527 l  1279  2529 l  1277  2534 l
  1277  2535 l  1250  2597 l  1249  2598 l  1249  2607 l  1250  2608 l
  1276  2673 l  1276  2674 l  1278  2678 l  1278  2679 l  1280  2685 l
  1281  2688 l  1282  2691 l  1282  2711 l  1281  2715 l  1280  2719 l
  1278  2726 l  1275  2733 l  1273  2741 l  1248  2752 l  1229  2756 l
  1194  2767 l  1138  2791 l  1131  2794 l  1120  2798 l
col-1 s                                 
/xs 0 def
(disp3)
/Times-Italic   100 stwn
red  521 1328 t    90 r xs 2 div neg 0 t 0 0 m
/Times-Italic fft    100 sf 0 0 m
(disp3)
show xs 2 div 0 t 0 0 m   -90 r  -521 -1328 t
 3.750 setlinewidth [2 10] 0 sd             
red n   521  1328 m  1087  1328 l
col-1 s                                 
 3.750 setlinewidth [] 0 sd                 
black n  211  738 m  211  745 l
col-1 s                                 
 3.750 setlinewidth [] 0 sd                 
black n  211  745 m  131  745 l
col-1 s                                 
 3.750 setlinewidth [] 0 sd                 
black n  131  745 m  131  738 l
col-1 s                                 
 3.750 setlinewidth [] 0 sd                 
black n  131  738 m  211  738 l
col-1 s                                 
 3.750 setlinewidth [] 0 sd                 
black n  211  745 m  211  777 l
col-1 s                                 
 3.750 setlinewidth [2 10] 0 sd             
black n  151  777 m  151  777 l
col-1 s                                 
 3.750 setlinewidth [2 10] 0 sd             
black n  151  777 m  271  777 l
col-1 s                                 
 3.750 setlinewidth [2 10] 0 sd             
black n  271  777 m  271  777 l
col-1 s                                 
 3.750 setlinewidth [2 10] 0 sd             
black n  271  777 m  151  777 l
col-1 s                                 
 3.750 setlinewidth [] 0 sd                 
black n  211  777 m  211  785 l
col-1 s                                 
 3.750 setlinewidth [2 10] 0 sd             
black n  151  785 m  151  785 l
col-1 s                                 
 3.750 setlinewidth [2 10] 0 sd             
black n  151  785 m  271  785 l
col-1 s                                 
 3.750 setlinewidth [2 10] 0 sd             
black n  271  785 m  271  785 l
col-1 s                                 
 3.750 setlinewidth [2 10] 0 sd             
black n  271  785 m  151  785 l
col-1 s                                 
 3.750 setlinewidth [] 0 sd                 
black n  211  785 m  211  802 l
col-1 s                                 
 3.750 setlinewidth [] 0 sd                 
black n  151  802 m  151  822 l
col-1 s                                 
 3.750 setlinewidth [] 0 sd                 
black n  151  822 m  271  822 l
col-1 s                                 
 3.750 setlinewidth [] 0 sd                 
black n  271  822 m  271  802 l
col-1 s                                 
 3.750 setlinewidth [] 0 sd                 
black n  271  802 m  151  802 l
col-1 s                                 
 3.750 setlinewidth [] 0 sd                 
black n  211  822 m  211  829 l
col-1 s                                 
 3.750 setlinewidth [] 0 sd                 
black n  211  829 m  211  842 l
col-1 s                                 
 3.750 setlinewidth [] 0 sd                 
black n  211  842 m  291  842 l
col-1 s                                 
 3.750 setlinewidth [] 0 sd                 
black n  291  842 m  291  829 l
col-1 s                                 
 3.750 setlinewidth [] 0 sd                 
black n  291  829 m  211  829 l
col-1 s                                 
 3.750 setlinewidth [] 0 sd                 
black n  211  842 m  211  849 l
col-1 s                                 
 3.750 setlinewidth [] 0 sd                 
black n  161  849 m  161  872 l
col-1 s                                 
 3.750 setlinewidth [] 0 sd                 
black n  161  872 m  261  872 l
col-1 s                                 
 3.750 setlinewidth [] 0 sd                 
black n  261  872 m  261  849 l
col-1 s                                 
 3.750 setlinewidth [] 0 sd                 
black n  261  849 m  161  849 l
col-1 s                                 
 3.750 setlinewidth [] 0 sd                 
black n  211  872 m  211  879 l
col-1 s                                 
 3.750 setlinewidth [2 10] 0 sd             
black n  151  879 m  151  879 l
col-1 s                                 
 3.750 setlinewidth [2 10] 0 sd             
black n  151  879 m  271  879 l
col-1 s                                 
 3.750 setlinewidth [2 10] 0 sd             
black n  271  879 m  271  879 l
col-1 s                                 
 3.750 setlinewidth [2 10] 0 sd             
black n  271  879 m  151  879 l
col-1 s                                 
 3.750 setlinewidth [] 0 sd                 
black n  211  879 m  211  896 l
col-1 s                                 
 3.750 setlinewidth [] 0 sd                 
black n  211  896 m  211  909 l
col-1 s                                 
 3.750 setlinewidth [] 0 sd                 
black n  211  909 m  131  909 l
col-1 s                                 
 3.750 setlinewidth [] 0 sd                 
black n  131  909 m  131  896 l
col-1 s                                 
 3.750 setlinewidth [] 0 sd                 
black n  131  896 m  211  896 l
col-1 s                                 
 3.750 setlinewidth [] 0 sd                 
black n  211  909 m  211  913 l
col-1 s                                 
 3.750 setlinewidth [2 10] 0 sd             
black n  151  913 m  151  913 l
col-1 s                                 
 3.750 setlinewidth [2 10] 0 sd             
black n  151  913 m  271  913 l
col-1 s                                 
 3.750 setlinewidth [2 10] 0 sd             
black n  271  913 m  271  913 l
col-1 s                                 
 3.750 setlinewidth [2 10] 0 sd             
black n  271  913 m  151  913 l
col-1 s                                 
 3.750 setlinewidth [] 0 sd                 
black n  211  913 m  211  918 l
col-1 s                                 
 3.750 setlinewidth [2 10] 0 sd             
black n  151  918 m  151  918 l
col-1 s                                 
 3.750 setlinewidth [2 10] 0 sd             
black n  151  918 m  271  918 l
col-1 s                                 
 3.750 setlinewidth [2 10] 0 sd             
black n  271  918 m  271  918 l
col-1 s                                 
 3.750 setlinewidth [2 10] 0 sd             
black n  271  918 m  151  918 l
col-1 s                                 
 3.750 setlinewidth [] 0 sd                 
black n  211  918 m  211  927 l
col-1 s                                 
 3.750 setlinewidth [2 10] 0 sd             
black n  151  927 m  151  927 l
col-1 s                                 
 3.750 setlinewidth [2 10] 0 sd             
black n  151  927 m  271  927 l
col-1 s                                 
 3.750 setlinewidth [2 10] 0 sd             
black n  271  927 m  271  927 l
col-1 s                                 
 3.750 setlinewidth [2 10] 0 sd             
black n  271  927 m  151  927 l
col-1 s                                 
 3.750 setlinewidth [] 0 sd                 
black n  211  927 m  211  934 l
col-1 s                                 
 3.750 setlinewidth [] 0 sd                 
black n  151  934 m  151  953 l
col-1 s                                 
 3.750 setlinewidth [] 0 sd                 
black n  151  953 m  271  953 l
col-1 s                                 
 3.750 setlinewidth [] 0 sd                 
black n  271  953 m  271  934 l
col-1 s                                 
 3.750 setlinewidth [] 0 sd                 
black n  271  934 m  151  934 l
col-1 s                                 
 3.750 setlinewidth [] 0 sd                 
black n  211  953 m   211  1036 l
col-1 s                                 
 3.750 setlinewidth [] 0 sd                 
black n   211  1036 m   211  1049 l
col-1 s                                 
 3.750 setlinewidth [] 0 sd                 
black n   211  1049 m   291  1049 l
col-1 s                                 
 3.750 setlinewidth [] 0 sd                 
black n   291  1049 m   291  1036 l
col-1 s                                 
 3.750 setlinewidth [] 0 sd                 
black n   291  1036 m   211  1036 l
col-1 s                                 
 3.750 setlinewidth [] 0 sd                 
black n   211  1049 m   211  1067 l
col-1 s                                 
 3.750 setlinewidth [2 10] 0 sd             
black n   151  1067 m   151  1074 l
col-1 s                                 
 3.750 setlinewidth [2 10] 0 sd             
black n   151  1074 m   271  1074 l
col-1 s                                 
 3.750 setlinewidth [2 10] 0 sd             
black n   271  1074 m   271  1067 l
col-1 s                                 
 3.750 setlinewidth [2 10] 0 sd             
black n   271  1067 m   151  1067 l
col-1 s                                 
 3.750 setlinewidth [] 0 sd                 
black n   211  1074 m   211  1128 l
col-1 s                                 
 3.750 setlinewidth [] 0 sd                 
black n   211  1128 m   211  1133 l
col-1 s                                 
 3.750 setlinewidth [] 0 sd                 
black n   211  1133 m   131  1133 l
col-1 s                                 
 3.750 setlinewidth [] 0 sd                 
black n   131  1133 m   131  1128 l
col-1 s                                 
 3.750 setlinewidth [] 0 sd                 
black n   131  1128 m   211  1128 l
col-1 s                                 
 3.750 setlinewidth [] 0 sd                 
black n   211  1133 m   211  1140 l
col-1 s                                 
 3.750 setlinewidth [] 0 sd                 
black n   211  1140 m   211  1152 l
col-1 s                                 
 3.750 setlinewidth [] 0 sd                 
black n   211  1152 m   131  1152 l
col-1 s                                 
 3.750 setlinewidth [] 0 sd                 
black n   131  1152 m   131  1140 l
col-1 s                                 
 3.750 setlinewidth [] 0 sd                 
black n   131  1140 m   211  1140 l
col-1 s                                 
 3.750 setlinewidth [] 0 sd                 
black n   211  1152 m   211  1160 l
col-1 s                                 
 3.750 setlinewidth [] 0 sd                 
black n   151  1160 m   151  1174 l
col-1 s                                 
 3.750 setlinewidth [] 0 sd                 
black n   151  1174 m   271  1174 l
col-1 s                                 
 3.750 setlinewidth [] 0 sd                 
black n   271  1174 m   271  1160 l
col-1 s                                 
 3.750 setlinewidth [] 0 sd                 
black n   271  1160 m   151  1160 l
col-1 s                                 
 3.750 setlinewidth [] 0 sd                 
black n   211  1174 m   211  1191 l
col-1 s                                 
 3.750 setlinewidth [] 0 sd                 
black n   161  1191 m   161  1214 l
col-1 s                                 
 3.750 setlinewidth [] 0 sd                 
black n   161  1214 m   261  1214 l
col-1 s                                 
 3.750 setlinewidth [] 0 sd                 
black n   261  1214 m   261  1191 l
col-1 s                                 
 3.750 setlinewidth [] 0 sd                 
black n   261  1191 m   161  1191 l
col-1 s                                 
 3.750 setlinewidth [] 0 sd                 
black n   211  1214 m   211  1234 l
col-1 s                                 
 3.750 setlinewidth [] 0 sd                 
black n   211  1234 m   211  1247 l
col-1 s                                 
 3.750 setlinewidth [] 0 sd                 
black n   211  1247 m   291  1247 l
col-1 s                                 
 3.750 setlinewidth [] 0 sd                 
black n   291  1247 m   291  1234 l
col-1 s                                 
 3.750 setlinewidth [] 0 sd                 
black n   291  1234 m   211  1234 l
col-1 s                                 
 3.750 setlinewidth [] 0 sd                 
black n   211  1247 m   211  1315 l
col-1 s                                 
 3.750 setlinewidth [2 10] 0 sd             
black n   151  1315 m   151  1315 l
col-1 s                                 
 3.750 setlinewidth [2 10] 0 sd             
black n   151  1315 m   271  1315 l
col-1 s                                 
 3.750 setlinewidth [2 10] 0 sd             
black n   271  1315 m   271  1315 l
col-1 s                                 
 3.750 setlinewidth [2 10] 0 sd             
black n   271  1315 m   151  1315 l
col-1 s                                 
 3.750 setlinewidth [] 0 sd                 
black n   211  1315 m   211  1321 l
col-1 s                                 
 3.750 setlinewidth [2 10] 0 sd             
black n   151  1321 m   151  1321 l
col-1 s                                 
 3.750 setlinewidth [2 10] 0 sd             
black n   151  1321 m   271  1321 l
col-1 s                                 
 3.750 setlinewidth [2 10] 0 sd             
black n   271  1321 m   271  1321 l
col-1 s                                 
 3.750 setlinewidth [2 10] 0 sd             
black n   271  1321 m   151  1321 l
col-1 s                                 
 3.750 setlinewidth [] 0 sd                 
black n   211  1321 m   211  1325 l
col-1 s                                 
 3.750 setlinewidth [2 10] 0 sd             
black n   151  1325 m   151  1325 l
col-1 s                                 
 3.750 setlinewidth [2 10] 0 sd             
black n   151  1325 m   271  1325 l
col-1 s                                 
 3.750 setlinewidth [2 10] 0 sd             
black n   271  1325 m   271  1325 l
col-1 s                                 
 3.750 setlinewidth [2 10] 0 sd             
black n   271  1325 m   151  1325 l
col-1 s                                 
 3.750 setlinewidth [] 0 sd                 
black n   211  1325 m   211  1330 l
col-1 s                                 
 3.750 setlinewidth [] 0 sd                 
black n   211  1330 m   211  1343 l
col-1 s                                 
 3.750 setlinewidth [] 0 sd                 
black n   211  1343 m   131  1343 l
col-1 s                                 
 3.750 setlinewidth [] 0 sd                 
black n   131  1343 m   131  1330 l
col-1 s                                 
 3.750 setlinewidth [] 0 sd                 
black n   131  1330 m   211  1330 l
col-1 s                                 
 3.750 setlinewidth [] 0 sd                 
black n   211  1343 m   211  1350 l
col-1 s                                 
 3.750 setlinewidth [] 0 sd                 
black n   211  1350 m   211  1362 l
col-1 s                                 
 3.750 setlinewidth [] 0 sd                 
black n   211  1362 m   131  1362 l
col-1 s                                 
 3.750 setlinewidth [] 0 sd                 
black n   131  1362 m   131  1350 l
col-1 s                                 
 3.750 setlinewidth [] 0 sd                 
black n   131  1350 m   211  1350 l
col-1 s                                 
 3.750 setlinewidth [] 0 sd                 
black n   211  1362 m   211  1392 l
col-1 s                                 
 3.750 setlinewidth [2 10] 0 sd             
black n   151  1392 m   151  1392 l
col-1 s                                 
 3.750 setlinewidth [2 10] 0 sd             
black n   151  1392 m   271  1392 l
col-1 s                                 
 3.750 setlinewidth [2 10] 0 sd             
black n   271  1392 m   271  1392 l
col-1 s                                 
 3.750 setlinewidth [2 10] 0 sd             
black n   271  1392 m   151  1392 l
col-1 s                                 
 3.750 setlinewidth [] 0 sd                 
black n   211  1392 m   211  1486 l
col-1 s                                 
 3.750 setlinewidth [] 0 sd                 
black n   211  1486 m   211  1495 l
col-1 s                                 
 3.750 setlinewidth [] 0 sd                 
black n   211  1495 m   291  1495 l
col-1 s                                 
 3.750 setlinewidth [] 0 sd                 
black n   291  1495 m   291  1486 l
col-1 s                                 
 3.750 setlinewidth [] 0 sd                 
black n   291  1486 m   211  1486 l
col-1 s                                 
 3.750 setlinewidth [] 0 sd                 
black n   211  1495 m   211  1501 l
col-1 s                                 
 3.750 setlinewidth [2 10] 0 sd             
black n   151  1501 m   151  1509 l
col-1 s                                 
 3.750 setlinewidth [2 10] 0 sd             
black n   151  1509 m   271  1509 l
col-1 s                                 
 3.750 setlinewidth [2 10] 0 sd             
black n   271  1509 m   271  1501 l
col-1 s                                 
 3.750 setlinewidth [2 10] 0 sd             
black n   271  1501 m   151  1501 l
col-1 s                                 
 3.750 setlinewidth [] 0 sd                 
black n   211  1509 m   211  1559 l
col-1 s                                 
 3.750 setlinewidth [] 0 sd                 
black n   211  1559 m   211  1567 l
col-1 s                                 
 3.750 setlinewidth [] 0 sd                 
black n   211  1567 m   131  1567 l
col-1 s                                 
 3.750 setlinewidth [] 0 sd                 
black n   131  1567 m   131  1559 l
col-1 s                                 
 3.750 setlinewidth [] 0 sd                 
black n   131  1559 m   211  1559 l
col-1 s                                 
 3.750 setlinewidth [] 0 sd                 
black n   211  1567 m   211  1576 l
col-1 s                                 
 3.750 setlinewidth [] 0 sd                 
black n   211  1576 m   211  1589 l
col-1 s                                 
 3.750 setlinewidth [] 0 sd                 
black n   211  1589 m   131  1589 l
col-1 s                                 
 3.750 setlinewidth [] 0 sd                 
black n   131  1589 m   131  1576 l
col-1 s                                 
 3.750 setlinewidth [] 0 sd                 
black n   131  1576 m   211  1576 l
col-1 s                                 
 3.750 setlinewidth [] 0 sd                 
black n   211  1589 m   211  1595 l
col-1 s                                 
 3.750 setlinewidth [] 0 sd                 
black n   211  1595 m   211  1604 l
col-1 s                                 
 3.750 setlinewidth [] 0 sd                 
black n   211  1604 m   131  1604 l
col-1 s                                 
 3.750 setlinewidth [] 0 sd                 
black n   131  1604 m   131  1595 l
col-1 s                                 
 3.750 setlinewidth [] 0 sd                 
black n   131  1595 m   211  1595 l
col-1 s                                 
 3.750 setlinewidth [] 0 sd                 
black n   211  1604 m   211  1667 l
col-1 s                                 
 3.750 setlinewidth [2 10] 0 sd             
black n   151  1667 m   151  1667 l
col-1 s                                 
 3.750 setlinewidth [2 10] 0 sd             
black n   151  1667 m   271  1667 l
col-1 s                                 
 3.750 setlinewidth [2 10] 0 sd             
black n   271  1667 m   271  1667 l
col-1 s                                 
 3.750 setlinewidth [2 10] 0 sd             
black n   271  1667 m   151  1667 l
col-1 s                                 
 3.750 setlinewidth [] 0 sd                 
black n   211  1667 m   211  1675 l
col-1 s                                 
 3.750 setlinewidth [] 0 sd                 
black n   211  1675 m   211  1683 l
col-1 s                                 
 3.750 setlinewidth [] 0 sd                 
black n   211  1683 m   291  1683 l
col-1 s                                 
 3.750 setlinewidth [] 0 sd                 
black n   291  1683 m   291  1675 l
col-1 s                                 
 3.750 setlinewidth [] 0 sd                 
black n   291  1675 m   211  1675 l
col-1 s                                 
 3.750 setlinewidth [] 0 sd                 
black n   211  1683 m   211  1772 l
col-1 s                                 
 3.750 setlinewidth [] 0 sd                 
black n   211  1772 m   211  1780 l
col-1 s                                 
 3.750 setlinewidth [] 0 sd                 
black n   211  1780 m   131  1780 l
col-1 s                                 
 3.750 setlinewidth [] 0 sd                 
black n   131  1780 m   131  1772 l
col-1 s                                 
 3.750 setlinewidth [] 0 sd                 
black n   131  1772 m   211  1772 l
col-1 s                                 
 3.750 setlinewidth [] 0 sd                 
black n   211  1780 m   211  1835 l
col-1 s                                 
 3.750 setlinewidth [2 10] 0 sd             
black n   151  1835 m   151  1835 l
col-1 s                                 
 3.750 setlinewidth [2 10] 0 sd             
black n   151  1835 m   271  1835 l
col-1 s                                 
 3.750 setlinewidth [2 10] 0 sd             
black n   271  1835 m   271  1835 l
col-1 s                                 
 3.750 setlinewidth [2 10] 0 sd             
black n   271  1835 m   151  1835 l
col-1 s                                 
 3.750 setlinewidth [] 0 sd                 
black n   211  1835 m   211  1869 l
col-1 s                                 
 3.750 setlinewidth [] 0 sd                 
black n   211  1869 m   211  1877 l
col-1 s                                 
 3.750 setlinewidth [] 0 sd                 
black n   211  1877 m   291  1877 l
col-1 s                                 
 3.750 setlinewidth [] 0 sd                 
black n   291  1877 m   291  1869 l
col-1 s                                 
 3.750 setlinewidth [] 0 sd                 
black n   291  1869 m   211  1869 l
col-1 s                                 
 3.750 setlinewidth [] 0 sd                 
black n   211  1877 m   211  1965 l
col-1 s                                 
 3.750 setlinewidth [] 0 sd                 
black n   211  1965 m   211  1974 l
col-1 s                                 
 3.750 setlinewidth [] 0 sd                 
black n   211  1974 m   131  1974 l
col-1 s                                 
 3.750 setlinewidth [] 0 sd                 
black n   131  1974 m   131  1965 l
col-1 s                                 
 3.750 setlinewidth [] 0 sd                 
black n   131  1965 m   211  1965 l
col-1 s                                 
 3.750 setlinewidth [] 0 sd                 
black n   211  1974 m   211  2062 l
col-1 s                                 
 3.750 setlinewidth [] 0 sd                 
black n   211  2062 m   211  2071 l
col-1 s                                 
 3.750 setlinewidth [] 0 sd                 
black n   211  2071 m   291  2071 l
col-1 s                                 
 3.750 setlinewidth [] 0 sd                 
black n   291  2071 m   291  2062 l
col-1 s                                 
 3.750 setlinewidth [] 0 sd                 
black n   291  2062 m   211  2062 l
col-1 s                                 
 3.750 setlinewidth [] 0 sd                 
black n   211  2071 m   211  2159 l
col-1 s                                 
 3.750 setlinewidth [] 0 sd                 
black n   211  2159 m   211  2167 l
col-1 s                                 
 3.750 setlinewidth [] 0 sd                 
black n   211  2167 m   131  2167 l
col-1 s                                 
 3.750 setlinewidth [] 0 sd                 
black n   131  2167 m   131  2159 l
col-1 s                                 
 3.750 setlinewidth [] 0 sd                 
black n   131  2159 m   211  2159 l
col-1 s                                 
 3.750 setlinewidth [] 0 sd                 
black n   211  2167 m   211  2174 l
col-1 s                                 
 3.750 setlinewidth [] 0 sd                 
black n   161  2174 m   161  2201 l
col-1 s                                 
 3.750 setlinewidth [] 0 sd                 
black n   161  2201 m   261  2201 l
col-1 s                                 
 3.750 setlinewidth [] 0 sd                 
black n   261  2201 m   261  2174 l
col-1 s                                 
 3.750 setlinewidth [] 0 sd                 
black n   261  2174 m   161  2174 l
col-1 s                                 
 3.750 setlinewidth [] 0 sd                 
black n   211  2201 m   211  2208 l
col-1 s                                 
 3.750 setlinewidth [] 0 sd                 
black n   161  2208 m   161  2236 l
col-1 s                                 
 3.750 setlinewidth [] 0 sd                 
black n   161  2236 m   261  2236 l
col-1 s                                 
 3.750 setlinewidth [] 0 sd                 
black n   261  2236 m   261  2208 l
col-1 s                                 
 3.750 setlinewidth [] 0 sd                 
black n   261  2208 m   161  2208 l
col-1 s                                 
 3.750 setlinewidth [] 0 sd                 
black n   211  2236 m   211  2247 l
col-1 s                                 
 3.750 setlinewidth [2 10] 0 sd             
black n   151  2247 m   151  2249 l
col-1 s                                 
 3.750 setlinewidth [2 10] 0 sd             
black n   151  2249 m   271  2249 l
col-1 s                                 
 3.750 setlinewidth [2 10] 0 sd             
black n   271  2249 m   271  2247 l
col-1 s                                 
 3.750 setlinewidth [2 10] 0 sd             
black n   271  2247 m   151  2247 l
col-1 s                                 
 3.750 setlinewidth [] 0 sd                 
black n   211  2249 m   211  2269 l
col-1 s                                 
 3.750 setlinewidth [] 0 sd                 
black n   211  2269 m   211  2278 l
col-1 s                                 
 3.750 setlinewidth [] 0 sd                 
black n   211  2278 m   131  2278 l
col-1 s                                 
 3.750 setlinewidth [] 0 sd                 
black n   131  2278 m   131  2269 l
col-1 s                                 
 3.750 setlinewidth [] 0 sd                 
black n   131  2269 m   211  2269 l
col-1 s                                 
 3.750 setlinewidth [] 0 sd                 
black n   211  2278 m   211  2281 l
col-1 s                                 
 3.750 setlinewidth [2 10] 0 sd             
black n   151  2281 m   151  2286 l
col-1 s                                 
 3.750 setlinewidth [2 10] 0 sd             
black n   151  2286 m   271  2286 l
col-1 s                                 
 3.750 setlinewidth [2 10] 0 sd             
black n   271  2286 m   271  2281 l
col-1 s                                 
 3.750 setlinewidth [2 10] 0 sd             
black n   271  2281 m   151  2281 l
col-1 s                                 
 3.750 setlinewidth [] 0 sd                 
black n   211  2286 m   211  2288 l
col-1 s                                 
 3.750 setlinewidth [] 0 sd                 
black n   161  2288 m   161  2309 l
col-1 s                                 
 3.750 setlinewidth [] 0 sd                 
black n   161  2309 m   261  2309 l
col-1 s                                 
 3.750 setlinewidth [] 0 sd                 
black n   261  2309 m   261  2288 l
col-1 s                                 
 3.750 setlinewidth [] 0 sd                 
black n   261  2288 m   161  2288 l
col-1 s                                 
 3.750 setlinewidth [] 0 sd                 
black n   211  2309 m   211  2316 l
col-1 s                                 
 3.750 setlinewidth [] 0 sd                 
black n   161  2316 m   161  2336 l
col-1 s                                 
 3.750 setlinewidth [] 0 sd                 
black n   161  2336 m   261  2336 l
col-1 s                                 
 3.750 setlinewidth [] 0 sd                 
black n   261  2336 m   261  2316 l
col-1 s                                 
 3.750 setlinewidth [] 0 sd                 
black n   261  2316 m   161  2316 l
col-1 s                                 
 3.750 setlinewidth [] 0 sd                 
black n   211  2336 m   211  2442 l
col-1 s                                 
 3.750 setlinewidth [] 0 sd                 
black n   211  2442 m   211  2450 l
col-1 s                                 
 3.750 setlinewidth [] 0 sd                 
black n   211  2450 m   131  2450 l
col-1 s                                 
 3.750 setlinewidth [] 0 sd                 
black n   131  2450 m   131  2442 l
col-1 s                                 
 3.750 setlinewidth [] 0 sd                 
black n   131  2442 m   211  2442 l
col-1 s                                 
 3.750 setlinewidth [] 0 sd                 
black n   211  2450 m   211  2454 l
col-1 s                                 
 3.750 setlinewidth [2 10] 0 sd             
black n   151  2454 m   151  2467 l
col-1 s                                 
 3.750 setlinewidth [2 10] 0 sd             
black n   151  2467 m   271  2467 l
col-1 s                                 
 3.750 setlinewidth [2 10] 0 sd             
black n   271  2467 m   271  2454 l
col-1 s                                 
 3.750 setlinewidth [2 10] 0 sd             
black n   271  2454 m   151  2454 l
col-1 s                                 
 3.750 setlinewidth [] 0 sd                 
black n   211  2467 m   211  2470 l
col-1 s                                 
 3.750 setlinewidth [2 10] 0 sd             
black n   151  2470 m   151  2484 l
col-1 s                                 
 3.750 setlinewidth [2 10] 0 sd             
black n   151  2484 m   271  2484 l
col-1 s                                 
 3.750 setlinewidth [2 10] 0 sd             
black n   271  2484 m   271  2470 l
col-1 s                                 
 3.750 setlinewidth [2 10] 0 sd             
black n   271  2470 m   151  2470 l
col-1 s                                 
 3.750 setlinewidth [] 0 sd                 
black n   211  2484 m   211  2500 l
col-1 s                                 
 3.750 setlinewidth [2 10] 0 sd             
black n   151  2500 m   151  2504 l
col-1 s                                 
 3.750 setlinewidth [2 10] 0 sd             
black n   151  2504 m   271  2504 l
col-1 s                                 
 3.750 setlinewidth [2 10] 0 sd             
black n   271  2504 m   271  2500 l
col-1 s                                 
 3.750 setlinewidth [2 10] 0 sd             
black n   271  2500 m   151  2500 l
col-1 s                                 
 3.750 setlinewidth [] 0 sd                 
black n   211  2504 m   211  2506 l
col-1 s                                 
 3.750 setlinewidth [] 0 sd                 
black n   151  2506 m   151  2509 l
col-1 s                                 
 3.750 setlinewidth [] 0 sd                 
black n   151  2509 m   271  2509 l
col-1 s                                 
 3.750 setlinewidth [] 0 sd                 
black n   271  2509 m   271  2506 l
col-1 s                                 
 3.750 setlinewidth [] 0 sd                 
black n   271  2506 m   151  2506 l
col-1 s                                 
 3.750 setlinewidth [] 0 sd                 
black n   211  2509 m   211  2512 l
col-1 s                                 
 3.750 setlinewidth [] 0 sd                 
black n   151  2512 m   151  2515 l
col-1 s                                 
 3.750 setlinewidth [] 0 sd                 
black n   151  2515 m   271  2515 l
col-1 s                                 
 3.750 setlinewidth [] 0 sd                 
black n   271  2515 m   271  2512 l
col-1 s                                 
 3.750 setlinewidth [] 0 sd                 
black n   271  2512 m   151  2512 l
col-1 s                                 
 3.750 setlinewidth [] 0 sd                 
black n   211  2515 m   211  2518 l
col-1 s                                 
 3.750 setlinewidth [] 0 sd                 
black n   211  2518 m   211  2527 l
col-1 s                                 
 3.750 setlinewidth [] 0 sd                 
black n   211  2527 m   291  2527 l
col-1 s                                 
 3.750 setlinewidth [] 0 sd                 
black n   291  2527 m   291  2518 l
col-1 s                                 
 3.750 setlinewidth [] 0 sd                 
black n   291  2518 m   211  2518 l
col-1 s                                 
 3.750 setlinewidth [] 0 sd                 
black n   211  2527 m   211  2529 l
col-1 s                                 
 3.750 setlinewidth [2 10] 0 sd             
black n   151  2529 m   151  2534 l
col-1 s                                 
 3.750 setlinewidth [2 10] 0 sd             
black n   151  2534 m   271  2534 l
col-1 s                                 
 3.750 setlinewidth [2 10] 0 sd             
black n   271  2534 m   271  2529 l
col-1 s                                 
 3.750 setlinewidth [2 10] 0 sd             
black n   271  2529 m   151  2529 l
col-1 s                                 
 3.750 setlinewidth [] 0 sd                 
black n   211  2534 m   211  2598 l
col-1 s                                 
 3.750 setlinewidth [] 0 sd                 
black n   211  2598 m   211  2607 l
col-1 s                                 
 3.750 setlinewidth [] 0 sd                 
black n   211  2607 m   131  2607 l
col-1 s                                 
 3.750 setlinewidth [] 0 sd                 
black n   131  2607 m   131  2598 l
col-1 s                                 
 3.750 setlinewidth [] 0 sd                 
black n   131  2598 m   211  2598 l
col-1 s                                 
 3.750 setlinewidth [] 0 sd                 
black n   211  2607 m   211  2674 l
col-1 s                                 
 3.750 setlinewidth [2 10] 0 sd             
black n   151  2674 m   151  2678 l
col-1 s                                 
 3.750 setlinewidth [2 10] 0 sd             
black n   151  2678 m   271  2678 l
col-1 s                                 
 3.750 setlinewidth [2 10] 0 sd             
black n   271  2678 m   271  2674 l
col-1 s                                 
 3.750 setlinewidth [2 10] 0 sd             
black n   271  2674 m   151  2674 l
col-1 s                                 
 3.750 setlinewidth [] 0 sd                 
black n   211  2678 m   211  2679 l
col-1 s                                 
 3.750 setlinewidth [] 0 sd                 
black n   161  2679 m   161  2685 l
col-1 s                                 
 3.750 setlinewidth [] 0 sd                 
black n   161  2685 m   261  2685 l
col-1 s                                 
 3.750 setlinewidth [] 0 sd                 
black n   261  2685 m   261  2679 l
col-1 s                                 
 3.750 setlinewidth [] 0 sd                 
black n   261  2679 m   161  2679 l
col-1 s                                 
 3.750 setlinewidth [] 0 sd                 
black n   211  2685 m   211  2691 l
col-1 s                                 
 3.750 setlinewidth [] 0 sd                 
black n   161  2691 m   161  2711 l
col-1 s                                 
 3.750 setlinewidth [] 0 sd                 
black n   161  2711 m   261  2711 l
col-1 s                                 
 3.750 setlinewidth [] 0 sd                 
black n   261  2711 m   261  2691 l
col-1 s                                 
 3.750 setlinewidth [] 0 sd                 
black n   261  2691 m   161  2691 l
col-1 s                                 
 3.750 setlinewidth [] 0 sd                 
black n   211  2711 m   211  2715 l
col-1 s                                 
 3.750 setlinewidth [] 0 sd                 
black n   151  2715 m   151  2719 l
col-1 s                                 
 3.750 setlinewidth [] 0 sd                 
black n   151  2719 m   271  2719 l
col-1 s                                 
 3.750 setlinewidth [] 0 sd                 
black n   271  2719 m   271  2715 l
col-1 s                                 
 3.750 setlinewidth [] 0 sd                 
black n   271  2715 m   151  2715 l
col-1 s                                 
 3.750 setlinewidth [] 0 sd                 
black n   211  2719 m   211  2741 l
col-1 s                                 
 3.750 setlinewidth [] 0 sd                 
black n   211  2741 m   211  2752 l
col-1 s                                 
 3.750 setlinewidth [] 0 sd                 
black n   211  2752 m   291  2752 l
col-1 s                                 
 3.750 setlinewidth [] 0 sd                 
black n   291  2752 m   291  2741 l
col-1 s                                 
 3.750 setlinewidth [] 0 sd                 
black n   291  2741 m   211  2741 l
col-1 s                                 
 3.750 setlinewidth [] 0 sd                 
black n   211  2752 m   211  2756 l
col-1 s                                 
 3.750 setlinewidth [] 0 sd                 
black n   211  2756 m   211  2767 l
col-1 s                                 
 3.750 setlinewidth [] 0 sd                 
black n   211  2767 m   131  2767 l
col-1 s                                 
 3.750 setlinewidth [] 0 sd                 
black n   131  2767 m   131  2756 l
col-1 s                                 
 3.750 setlinewidth [] 0 sd                 
black n   131  2756 m   211  2756 l
col-1 s                                 
 3.750 setlinewidth [] 0 sd                 
black n   211  2767 m   211  2791 l
col-1 s                                 
 3.750 setlinewidth [2 10] 0 sd             
black n   151  2791 m   151  2791 l
col-1 s                                 
 3.750 setlinewidth [2 10] 0 sd             
black n   151  2791 m   271  2791 l
col-1 s                                 
 3.750 setlinewidth [2 10] 0 sd             
black n   271  2791 m   271  2791 l
col-1 s                                 
 3.750 setlinewidth [2 10] 0 sd             
black n   271  2791 m   151  2791 l
col-1 s                                 
 3.750 setlinewidth [2 10] 0 sd             
black n   151  2791 m   151  2794 l
col-1 s                                 
 3.750 setlinewidth [2 10] 0 sd             
black n   151  2794 m   271  2794 l
col-1 s                                 
 3.750 setlinewidth [2 10] 0 sd             
black n   271  2794 m   271  2791 l
col-1 s                                 
 3.750 setlinewidth [2 10] 0 sd             
black n   271  2791 m   151  2791 l
col-1 s                                 
 3.750 setlinewidth [] 0 sd                 
black n   211  2794 m   211  2798 l
col-1 s                                 
$GX11psEnd showpage
%%EOF
