! initial twiss parameters for TT2 @ 14 GeV/c CT
/*
! input values for 1999 matching
! D and DP from measurement of 5/5/99
! Twiss parameters average of TT2 SEM (10/6/99) 
! and TT10 SEM (4/6/99) 

BETX0  := 38.9115;
ALFX0  := -3.164635;
MUX0   :=  0.0;
BETY0  := 10.66396;
ALFY0  :=  0.7597025;
MUY0   :=  0.0;
X0     :=  0.000000000000;
PX0    :=  0.000000000000;
Y0     :=  0.000000000000;
PY0    :=  0.000000000000;
T0     :=  0.000000000000;
PT0    :=  0.000000000000;
DX0    :=  1.81034575;
DPX0   :=  0.12965338;
DY0    := -0.091621105;
DPY0   :=  0.010274955;
*/

! Initial conditions for CT beam
! - dispersion from measurement of 19/05/98
! - beta and alfa from TT10 grids 
! input for present optics

BETX0  := 25.877037785092;
ALFX0  := -2.181915015426;
MUX0   :=  0.0;
BETY0  := 10.114441818182;
ALFY0  :=  0.848701065867 ;
MUY0   :=  0.0;
X0     :=  0.000000000000;
PX0    :=  0.000000000000;
Y0     :=  0.000000000000;
PY0    :=  0.000000000000;
T0     :=  0.000000000000;
PT0    :=  0.000000000000;
DX0    :=  1.29508858;
DPX0   :=  0.10171066;
DY0    :=  0.086941341; 
DPY0   :=  0.020583784;


/*
! Original setting
! date = historical
! input for optics used until 1998 studies 

BETX0  := 49.585;
ALFX0  := -3.913;
MUX0   := 13.283;
BETY0  :=  8.699;
ALFY0  :=  0.227;
MUY0   := 13.762;
X0     :=  0.000000000000;
PX0    :=  0.000000000000;
Y0     :=  0.000000000000;
PY0    :=  0.000000000000;
T0     :=  0.000000000000;
PT0    :=  0.000000000000;
DX0    :=  6.472;
DPX0   :=  0.456;
DY0    :=  0.000000000000;
DPY0   :=  0.000000000000;

*/

return;


