@ NAME             %09s "PTC_TWISS"
@ TYPE             %05s "TWISS"
@ SEQUENCE         %03s "TT2"
@ PARTICLE         %06s "PROTON"
@ MASS             %le     0.93827
@ CHARGE           %le     1.00000
@ ENERGY           %le    26.01692
@ PC               %le    26.00000
@ GAMMA            %le    27.72855
@ KBUNCH           %le     1.00000
@ BCURRENT         %le     0.00000
@ SIGE             %le     0.00107
@ SIGT             %le     0.00000
@ NPART            %le     0.00000
@ EX               %le     0.00000
@ EY               %le     0.00000
@ ET               %le     1.00000
@ DELTAP           %le     0.00000
@ LENGTH           %le    69.58890
@ ALPHA_C          %le  -1000000.00000
@ ALPHA_C_P        %le  -1000000.00000
@ ALPHA_C_P2       %le  -1000000.00000
@ ALPHA_C_P3       %le  -1000000.00000
@ ETA_C            %le  -1000000.00000
@ GAMMA_TR         %le  -1000000.00000
@ Q1               %le     0.38780
@ Q2               %le     0.44246
@ DQ1              %le  -1000000.00000
@ DQ2              %le  -1000000.00000
@ QS               %le  -1000000.00000
@ BETA_X_MIN       %le    12.92515
@ BETA_X_MAX       %le    66.84878
@ BETA_Y_MIN       %le    10.85541
@ BETA_Y_MAX       %le    54.32736
@ BETA11MIN        %le    12.92515
@ BETA11MAX        %le    66.84878
@ BETA12MIN        %le     0.00000
@ BETA12MAX        %le     0.00000
@ BETA13MIN        %le     0.00000
@ BETA13MAX        %le     0.00000
@ BETA21MIN        %le     0.00000
@ BETA21MAX        %le     0.00000
@ BETA22MIN        %le    10.85541
@ BETA22MAX        %le    54.32736
@ BETA23MIN        %le     0.00000
@ BETA23MAX        %le     0.00000
@ BETA31MIN        %le     0.00000
@ BETA31MAX        %le     0.00000
@ BETA32MIN        %le     0.00000
@ BETA32MAX        %le     0.00000
@ BETA33MIN        %le     0.00000
@ BETA33MAX        %le     0.00000
@ DISP1MIN         %le   -42.07370
@ DISP1MAX         %le     3.07389
@ DISP2MIN         %le    -1.19454
@ DISP2MAX         %le     0.25256
@ DISP3MIN         %le    -8.76489
@ DISP3MAX         %le     0.02400
@ DISP4MIN         %le    -0.22845
@ DISP4MAX         %le     0.02053
@ ORBIT_X          %le     0.00000
@ ORBIT_PX         %le     0.00000
@ ORBIT_Y          %le     0.00000
@ ORBIT_PY         %le     0.00000
@ ORBIT_PT         %le     0.00000
@ ORBIT_-CT        %le     0.00000
@ XCORMS           %le     0.00000
@ PXCORMS          %le     0.00000
@ YCORMS           %le     0.00000
@ PYCORMS          %le     0.00000
@ TCORMS           %le     0.00000
@ PTCORMS          %le     0.00000
@ XCOMIN           %le     0.00000
@ XCOMAX           %le     0.00000
@ PXCOMIN          %le     0.00000
@ PXCOMAX          %le     0.00000
@ YCOMIN           %le     0.00000
@ YCOMAX           %le     0.00000
@ PYCOMIN          %le     0.00000
@ PYCOMAX          %le     0.00000
@ TCOMIN           %le     0.00000
@ TCOMAX           %le     0.00000
@ PTCOMIN          %le     0.00000
@ PTCOMAX          %le     0.00000
@ TITLE            %74s "TT2/TT10 optics. LHC Ion beam 54+/82+, 6.75 GeV/c/u ~ 26 GeV/c proton beam"
@ ORIGIN           %22s "MAD-X 5.02.00 Linux 64"
@ DATE             %08s "06/02/15"
@ TIME             %08s "11.47.47"
* NAME                        S          X         PX      DISP1      DISP2     ALFA11     BETA11        MU1          Y         PY      DISP3      DISP4     ALFA22     BETA22        MU2      DIMXC      DIMYC APERTYPE               APER_1     APER_2     APER_3     APER_4 
$ %s                        %le        %le        %le        %le        %le        %le        %le        %le        %le        %le        %le        %le        %le        %le        %le        %le        %le %s                        %le        %le        %le        %le 
 "TT2$START"            0.00000    0.00000    0.00000    3.04140    0.25256   -2.22870   26.14310    0.00000    0.00000    0.00000    0.02400   -0.01400    0.76200   10.88300    0.00000    0.00345    0.00222 "CIRCLE"               0.00000    0.00000    0.00000    0.00000
 "TT2A$START"           0.00000    0.00000    0.00000    3.04140    0.25256   -2.22870   26.14310    0.00000    0.00000    0.00000    0.02400   -0.01400    0.76200   10.88300    0.00000    0.00345    0.00222 "CIRCLE"               0.00000    0.00000    0.00000    0.00000
 "BEGTT2A"              0.00000    0.00000    0.00000    3.04140    0.25256   -2.22870   26.14310    0.00000    0.00000    0.00000    0.02400   -0.01400    0.76200   10.88300    0.00000    0.00345    0.00222 "CIRCLE"               0.00000    0.00000    0.00000    0.00000
 "POINTR"               0.00000    0.00000    0.00000    3.04140    0.25256   -2.22870   26.14310    0.00000    0.00000    0.00000    0.02400   -0.01400    0.76200   10.88300    0.00000    0.00345    0.00222 "ELLIPSE"              0.04000    0.01900    0.00000    0.00000
 "F16.QFN105"           0.64500    0.00000    0.00000    3.07389   -0.15252    1.24761   26.79443    0.00382    0.00000    0.00000    0.01587   -0.01140   -0.71802   10.85541    0.00958    0.00349    0.00222 "ELLIPSE"              0.04000    0.01900    0.00000    0.00000
 "DRIFT_0"              3.40600    0.00000    0.00000    2.65277   -0.15252    0.98417   20.63248    0.02256    0.00000    0.00000   -0.01560   -0.01140   -1.10349   15.88461    0.04330    0.00306    0.00269 "NONE"                 0.00000    0.00000    0.00000    0.00000
 "F16.VPI01"            3.40600    0.00000    0.00000    2.65277   -0.15252    0.98417   20.63248    0.02256    0.00000    0.00000   -0.01560   -0.01140   -1.10349   15.88461    0.04330    0.00306    0.00269 "ELLIPSE"              0.04350    0.04350    0.00000    0.00000
 "DRIFT_1"              3.70450    0.00000    0.00000    2.60725   -0.15252    0.95569   20.05343    0.02489    0.00000    0.00000   -0.01900   -0.01140   -1.14517   16.55584    0.04623    0.00302    0.00274 "NONE"                 0.00000    0.00000    0.00000    0.00000
 "F16.BPM106"           3.70450    0.00000    0.00000    2.60725   -0.15252    0.95569   20.05343    0.02489    0.00000    0.00000   -0.01900   -0.01140   -1.14517   16.55584    0.04623    0.00302    0.00274 "CIRCLE"               0.00000    0.00000    0.00000    0.00000
 "DRIFT_2"              3.76900    0.00000    0.00000    2.59741   -0.15252    0.94954   19.93055    0.02541    0.00000    0.00000   -0.01973   -0.01140   -1.15417   16.70415    0.04685    0.00301    0.00276 "NONE"                 0.00000    0.00000    0.00000    0.00000
 "F16.VVS10"            3.76900    0.00000    0.00000    2.59741   -0.15252    0.94954   19.93055    0.02541    0.00000    0.00000   -0.01973   -0.01140   -1.15417   16.70415    0.04685    0.00301    0.00276 "ELLIPSE"              0.06500    0.06500    0.00000    0.00000
 "DRIFT_3"              4.50700    0.00000    0.00000    2.48485   -0.15252    0.87912   18.58099    0.03151    0.00000    0.00000   -0.02815   -0.01140   -1.25721   18.48374    0.05353    0.00291    0.00290 "NONE"                 0.00000    0.00000    0.00000    0.00000
 "F16.BTV107"           4.50700    0.00000    0.00000    2.48485   -0.15252    0.87912   18.58099    0.03151    0.00000    0.00000   -0.02815   -0.01140   -1.25721   18.48374    0.05353    0.00291    0.00290 "ELLIPSE"              0.06500    0.06500    0.00000    0.00000
 "DRIFT_4"              6.10950    0.00000    0.00000    2.24043   -0.15252    0.72623   16.00842    0.04632    0.00000    0.00000   -0.04641   -0.01140   -1.48094   22.87162    0.06595    0.00270    0.00322 "NONE"                 0.00000    0.00000    0.00000    0.00000
 "F16.BHZ117"           7.95950    0.00000    0.00000    1.97215   -0.13751    0.54972   13.64801    0.06629    0.00000    0.00000   -0.06749   -0.01139   -1.73574   28.82315    0.07743    0.00249    0.00362 "ELLIPSE"              0.06500    0.03600    0.00000    0.00000
 "DRIFT_5"              8.65950    0.00000    0.00000    1.87589   -0.13751    0.48293   12.92515    0.07468    0.00000    0.00000   -0.07546   -0.01139   -1.83320   31.32141    0.08114    0.00242    0.00377 "NONE"                 0.00000    0.00000    0.00000    0.00000
 "F16.QDN120"           9.85950    0.00000    0.00000    1.82696    0.05510   -0.99037   13.50970    0.08946    0.00000    0.00000   -0.08413   -0.00291    1.47956   31.76457    0.08707    0.00248    0.00380 "ELLIPSE"              0.04750    0.04750    0.00000    0.00000
 "DRIFT_5"             10.55950    0.00000    0.00000    1.86553    0.05510   -1.09300   14.96807    0.09730    0.00000    0.00000   -0.08617   -0.00291    1.40928   29.74238    0.09069    0.00261    0.00368 "NONE"                 0.00000    0.00000    0.00000    0.00000
 "F16.BVT123"          12.75950    0.00000    0.00000    1.98647    0.05483   -1.41273   20.48154    0.11735    0.00000    0.00000   -0.11199   -0.02056    1.18842   24.02774    0.10380    0.00305    0.00331 "ELLIPSE"              0.04950    0.05150    0.00000    0.00000
 "DRIFT_6"             13.41450    0.00000    0.00000    2.02238    0.05483   -1.50853   22.39497    0.12222    0.00000    0.00000   -0.12545   -0.02056    1.12266   22.51399    0.10829    0.00319    0.00320 "NONE"                 0.00000    0.00000    0.00000    0.00000
 "F16.BCTF126"         13.41450    0.00000    0.00000    2.02238    0.05483   -1.50853   22.39497    0.12222    0.00000    0.00000   -0.12545   -0.02056    1.12266   22.51399    0.10829    0.00319    0.00320 "ELLIPSE"              0.05750    0.05750    0.00000    0.00000
 "DRIFT_7"             14.04350    0.00000    0.00000    2.05687    0.05483   -1.60054   24.35057    0.12651    0.00000    0.00000   -0.13839   -0.02056    1.05951   21.14141    0.11287    0.00333    0.00310 "NONE"                 0.00000    0.00000    0.00000    0.00000
 "F16.VPI12"           14.04350    0.00000    0.00000    2.05687    0.05483   -1.60054   24.35057    0.12651    0.00000    0.00000   -0.13839   -0.02056    1.05951   21.14141    0.11287    0.00333    0.00310 "ELLIPSE"              0.06500    0.06500    0.00000    0.00000
 "DRIFT_8"             15.07550    0.00000    0.00000    2.11345    0.05483   -1.75149   27.80986    0.13282    0.00000    0.00000   -0.15961   -0.02056    0.95590   19.06151    0.12106    0.00356    0.00294 "NONE"                 0.00000    0.00000    0.00000    0.00000
 "F16.QFN135"          16.27550    0.00000    0.00000    2.05938   -0.14409    0.90050   28.87145    0.13944    0.00000    0.00000   -0.19388   -0.03710   -0.88818   18.98319    0.13130    0.00362    0.00294 "ELLIPSE"              0.06500    0.03300    0.00000    0.00000
 "DRIFT_9"             16.67050    0.00000    0.00000    2.00247   -0.14409    0.87573   28.16983    0.14164    0.00000    0.00000   -0.20853   -0.03710   -0.92540   19.69956    0.13455    0.00358    0.00299 "NONE"                 0.00000    0.00000    0.00000    0.00000
 "F16.BTV138"          16.67050    0.00000    0.00000    2.00247   -0.14409    0.87573   28.16983    0.14164    0.00000    0.00000   -0.20853   -0.03710   -0.92540   19.69956    0.13455    0.00358    0.00299 "ELLIPSE"              0.06500    0.06500    0.00000    0.00000
 "DRIFT_10"            17.16850    0.00000    0.00000    1.93071   -0.14409    0.84449   27.31316    0.14450    0.00000    0.00000   -0.22701   -0.03710   -0.97233   20.64463    0.13848    0.00352    0.00306 "NONE"                 0.00000    0.00000    0.00000    0.00000
 "F16.UWB136"          17.16850    0.00000    0.00000    1.93071   -0.14409    0.84449   27.31316    0.14450    0.00000    0.00000   -0.22701   -0.03710   -0.97233   20.64463    0.13848    0.00352    0.00306 "ELLIPSE"              0.06750    0.06750    0.00000    0.00000
 "DRIFT_11"            18.02950    0.00000    0.00000    1.80665   -0.14409    0.79049   25.90545    0.14965    0.00000    0.00000   -0.25895   -0.03710   -1.05347   22.38884    0.14486    0.00343    0.00319 "NONE"                 0.00000    0.00000    0.00000    0.00000
 "F16.MTO142"          18.02950    0.00000    0.00000    1.80665   -0.14409    0.79049   25.90545    0.14965    0.00000    0.00000   -0.25895   -0.03710   -1.05347   22.38884    0.14486    0.00343    0.00319 "ELLIPSE"              0.08000    0.08000    0.00000    0.00000
 "DRIFT_12"            18.64650    0.00000    0.00000    1.71775   -0.14409    0.75179   24.95386    0.15351    0.00000    0.00000   -0.28184   -0.03710   -1.11161   23.72469    0.14912    0.00337    0.00328 "NONE"                 0.00000    0.00000    0.00000    0.00000
 "F16.BHZ147"          20.49650    0.00000    0.00000    1.46340   -0.13088    0.63575   22.38699    0.16598    0.00000    0.00000   -0.35044   -0.03707   -1.28331   28.15567    0.16052    0.00319    0.00358 "ELLIPSE"              0.06500    0.03600    0.00000    0.00000
 "DRIFT_13"            21.20000    0.00000    0.00000    1.37133   -0.13088    0.59163   21.52353    0.17108    0.00000    0.00000   -0.37652   -0.03707   -1.34944   30.00781    0.16437    0.00313    0.00369 "NONE"                 0.00000    0.00000    0.00000    0.00000
 "F16.VPI148"          21.20000    0.00000    0.00000    1.37133   -0.13088    0.59163   21.52353    0.17108    0.00000    0.00000   -0.37652   -0.03707   -1.34944   30.00781    0.16437    0.00313    0.00369 "CIRCLE"               0.00000    0.00000    0.00000    0.00000
 "DRIFT_14"            28.40350    0.00000    0.00000    0.42853   -0.13088    0.13980   16.25468    0.23401    0.00000    0.00000   -0.64353   -0.03707   -2.02663   54.32736    0.19292    0.00272    0.00497 "NONE"                 0.00000    0.00000    0.00000    0.00000
 "F16.QDN150"          29.60350    0.00000    0.00000    0.29047   -0.10113   -1.36066   17.67269    0.24547    0.00000    0.00000   -0.65531    0.01759    2.49792   53.74214    0.19639    0.00283    0.00494 "ELLIPSE"              0.04750    0.04750    0.00000    0.00000
 "DRIFT_15"            31.32450    0.00000    0.00000    0.11644   -0.10113   -1.63834   22.83397    0.25912    0.00000    0.00000   -0.62504    0.01759    2.26609   45.54328    0.20193    0.00322    0.00455 "NONE"                 0.00000    0.00000    0.00000    0.00000
 "F16.BPM151"          32.04250    0.00000    0.00000    0.04383   -0.10113   -1.75418   25.26980    0.26388    0.00000    0.00000   -0.61241    0.01759    2.16936   42.35862    0.20453    0.00339    0.00439 "ELLIPSE"              0.05837    0.05837    0.00000    0.00000
 "DRIFT_16"            32.76950    0.00000    0.00000   -0.02969   -0.10113   -1.87148   27.90566    0.26824    0.00000    0.00000   -0.59962    0.01759    2.07143   39.27557    0.20737    0.00356    0.00423 "NONE"                 0.00000    0.00000    0.00000    0.00000
 "F16.STP152"          32.76950    0.00000    0.00000   -0.02969   -0.10113   -1.87148   27.90566    0.26824    0.00000    0.00000   -0.59962    0.01759    2.07143   39.27557    0.20737    0.00356    0.00423 "ELLIPSE"              0.06500    0.06500    0.00000    0.00000
 "DRIFT_17"            34.87450    0.00000    0.00000   -0.24256   -0.10113   -2.21111   36.49952    0.27875    0.00000    0.00000   -0.56259    0.01759    1.78787   31.15175    0.21695    0.00407    0.00376 "NONE"                 0.00000    0.00000    0.00000    0.00000
 "F16.VPI13"           34.87450    0.00000    0.00000   -0.24256   -0.10113   -2.21111   36.49952    0.27875    0.00000    0.00000   -0.56259    0.01759    1.78787   31.15175    0.21695    0.00407    0.00376 "ELLIPSE"              0.06500    0.06500    0.00000    0.00000
 "DRIFT_18"            37.15091    0.00000    0.00000   -0.47276   -0.10113   -2.57840   47.40242    0.28746    0.00000    0.00000   -0.52255    0.01759    1.48121   23.71000    0.23030    0.00464    0.00328 "NONE"                 0.00000    0.00000    0.00000    0.00000
 "F16.QDN163"          37.65091    0.00000    0.00000   -0.52333   -0.10113   -2.65907   50.02115    0.28909    0.00000    0.00000   -0.51376    0.01759    1.41385   22.26246    0.23377    0.00477    0.00318 "ELLIPSE"              0.06500    0.06500    0.00000    0.00000
 "DRIFT_19"            38.30640    0.00000    0.00000   -0.58961   -0.10113   -2.76483   53.57647    0.29111    0.00000    0.00000   -0.50223    0.01759    1.32555   20.46681    0.23865    0.00494    0.00305 "NONE"                 0.00000    0.00000    0.00000    0.00000
 "F16.QFN165"          39.50640    0.00000    0.00000   -0.69210   -0.06884   -0.04540   57.01805    0.29453    0.00000    0.00000   -0.49609   -0.00731    0.25240   18.61034    0.24854    0.00509    0.00291 "ELLIPSE"              0.04750    0.04750    0.00000    0.00000
 "DRIFT_5"             40.20640    0.00000    0.00000   -0.74029   -0.06884   -0.05771   57.09023    0.29648    0.00000    0.00000   -0.50120   -0.00731    0.21239   18.28498    0.25458    0.00509    0.00288 "NONE"                 0.00000    0.00000    0.00000    0.00000
 "F16.BHZ167"          41.60640    0.00000    0.00000   -0.84264   -0.07738   -0.08231   57.28625    0.30038    0.00000    0.00000   -0.51141   -0.00728    0.13330   17.80100    0.26695    0.00510    0.00285 "ELLIPSE"              0.06500    0.03600    0.00000    0.00000
 "DRIFT_20"            43.15940    0.00000    0.00000   -0.96281   -0.07738   -0.10960   57.58429    0.30468    0.00000    0.00000   -0.52272   -0.00728    0.04451   17.52487    0.28096    0.00512    0.00282 "NONE"                 0.00000    0.00000    0.00000    0.00000
 "F16.BVT173"          45.35940    0.00000    0.00000   -1.13289   -0.07723   -0.14005   58.13362    0.31074    0.00000    0.00000   -0.51933    0.01037   -0.08127   17.60575    0.30094    0.00514    0.00283 "ELLIPSE"              0.04950    0.05150    0.00000    0.00000
 "DRIFT_21"            46.29950    0.00000    0.00000   -1.20549   -0.07723   -0.15654   58.41245    0.31330    0.00000    0.00000   -0.50958    0.01037   -0.13502   17.80909    0.30940    0.00515    0.00285 "NONE"                 0.00000    0.00000    0.00000    0.00000
 "F16.STP176"          46.29950    0.00000    0.00000   -1.20549   -0.07723   -0.15654   58.41245    0.31330    0.00000    0.00000   -0.50958    0.01037   -0.13502   17.80909    0.30940    0.00515    0.00285 "ELLIPSE"              0.06500    0.06500    0.00000    0.00000
 "DRIFT_22"            47.32540    0.00000    0.00000   -1.28472   -0.07723   -0.17453   58.75210    0.31609    0.00000    0.00000   -0.49894    0.01037   -0.19368   18.14631    0.31849    0.00517    0.00287 "NONE"                 0.00000    0.00000    0.00000    0.00000
 "F16.QDN180"          48.52540    0.00000    0.00000   -1.37996   -0.08156   -0.38869   59.42709    0.31933    0.00000    0.00000   -0.48553    0.01197   -0.20170   18.62138    0.32888    0.00520    0.00291 "ELLIPSE"              0.04750    0.04750    0.00000    0.00000
 "DRIFT_23"            49.05240    0.00000    0.00000   -1.42295   -0.08156   -0.39889   59.84214    0.32073    0.00000    0.00000   -0.47922    0.01197   -0.23115   18.84950    0.33335    0.00522    0.00293 "NONE"                 0.00000    0.00000    0.00000    0.00000
 "F16.VVS20"           49.05240    0.00000    0.00000   -1.42295   -0.08156   -0.39889   59.84214    0.32073    0.00000    0.00000   -0.47922    0.01197   -0.23115   18.84950    0.33335    0.00522    0.00293 "ELLIPSE"              0.07250    0.07250    0.00000    0.00000
 "DRIFT_24"            55.03440    0.00000    0.00000   -1.91086   -0.08156   -0.51476   65.30764    0.33599    0.00000    0.00000   -0.40761    0.01197   -0.56547   23.61489    0.37911    0.00545    0.00328 "NONE"                 0.00000    0.00000    0.00000    0.00000
 "F16.BTV201"          55.03440    0.00000    0.00000   -1.91086   -0.08156   -0.51476   65.30764    0.33599    0.00000    0.00000   -0.40761    0.01197   -0.56547   23.61489    0.37911    0.00545    0.00328 "ELLIPSE"              0.06500    0.06500    0.00000    0.00000
 "DRIFT_25"            55.62440    0.00000    0.00000   -1.95898   -0.08156   -0.52619   65.92181    0.33742    0.00000    0.00000   -0.40055    0.01197   -0.59844   24.30159    0.38303    0.00547    0.00332 "NONE"                 0.00000    0.00000    0.00000    0.00000
 "F16.UES202"          55.62440    0.00000    0.00000   -1.95898   -0.08156   -0.52619   65.92181    0.33742    0.00000    0.00000   -0.40055    0.01197   -0.59844   24.30159    0.38303    0.00547    0.00332 "ELLIPSE"              0.06320    0.03950    0.00000    0.00000
 "DRIFT_26"            55.95240    0.00000    0.00000   -1.98573   -0.08156   -0.53254   66.26907    0.33821    0.00000    0.00000   -0.39662    0.01197   -0.61677   24.70018    0.38516    0.00549    0.00335 "NONE"                 0.00000    0.00000    0.00000    0.00000
 "F16.BCTF203"         55.95240    0.00000    0.00000   -1.98573   -0.08156   -0.53254   66.26907    0.33821    0.00000    0.00000   -0.39662    0.01197   -0.61677   24.70018    0.38516    0.00549    0.00335 "ELLIPSE"              0.05550    0.05550    0.00000    0.00000
 "DRIFT_27"            56.49140    0.00000    0.00000   -2.02969   -0.08156   -0.54298   66.84878    0.33950    0.00000    0.00000   -0.39017    0.01197   -0.64689   25.38130    0.38858    0.00551    0.00340 "NONE"                 0.00000    0.00000    0.00000    0.00000
 "F16.QFN205"          57.69140    0.00000    0.00000   -1.97787    0.16688    6.99572   58.70248    0.34247    0.00000    0.00000   -0.40447   -0.03610   -4.34228   31.09130    0.39555    0.00517    0.00376 "ELLIPSE"              0.04750    0.04750    0.00000    0.00000
 "DRIFT_28"            58.32406    0.00000    0.00000   -1.87229    0.16688    6.45750   50.19116    0.34433    0.00000    0.00000   -0.42731   -0.03610   -4.74630   36.84128    0.39853    0.00478    0.00409 "NONE"                 0.00000    0.00000    0.00000    0.00000
 "F16.QDN207"          59.52406    0.00000    0.00000   -1.81404   -0.06855    0.25162   42.53253    0.34857    0.00000    0.00000   -0.43677    0.02053    0.25162   42.53253    0.40323    0.00440    0.00440 "ELLIPSE"              0.04750    0.04750    0.00000    0.00000
 "DRIFT_29"            61.61206    0.00000    0.00000   -1.95718   -0.06855    0.19942   41.59075    0.35647    0.00000    0.00000   -0.39390    0.02053    0.19942   41.59075    0.41113    0.00435    0.00435 "NONE"                 0.00000    0.00000    0.00000    0.00000
 "F16.VPI24"           61.61206    0.00000    0.00000   -1.95718   -0.06855    0.19942   41.59075    0.35647    0.00000    0.00000   -0.39390    0.02053    0.19942   41.59075    0.41113    0.00435    0.00435 "ELLIPSE"              0.07250    0.07250    0.00000    0.00000
 "DRIFT_30"            62.37250    0.00000    0.00000   -2.00931   -0.06855    0.18041   41.30191    0.35939    0.00000    0.00000   -0.37829    0.02053    0.18041   41.30191    0.41405    0.00433    0.00433 "NONE"                 0.00000    0.00000    0.00000    0.00000
 "F16.UES208"          62.37250    0.00000    0.00000   -2.00931   -0.06855    0.18041   41.30191    0.35939    0.00000    0.00000   -0.37829    0.02053    0.18041   41.30191    0.41405    0.00433    0.00433 "ELLIPSE"              0.07200    0.04500    0.00000    0.00000
 "DRIFT_31"            66.32540    0.00000    0.00000   -2.28029   -0.06855    0.08159   40.26626    0.37484    0.00000    0.00000   -0.29712    0.02053    0.08159   40.26626    0.42951    0.00428    0.00428 "NONE"                 0.00000    0.00000    0.00000    0.00000
 "F16.VPG1"            66.32540    0.00000    0.00000   -2.28029   -0.06855    0.08159   40.26626    0.37484    0.00000    0.00000   -0.29712    0.02053    0.08159   40.26626    0.42951    0.00428    0.00428 "ELLIPSE"              0.06500    0.06500    0.00000    0.00000
 "DRIFT_32"            69.58890    0.00000    0.00000   -2.50401   -0.06855    0.00000   40.00000    0.38780    0.00000    0.00000   -0.23011    0.02053   -0.00000   40.00000    0.44246    0.00426    0.00426 "NONE"                 0.00000    0.00000    0.00000    0.00000
 "STRN"                69.58890    0.00000    0.00000   -2.50401   -0.06855    0.00000   40.00000    0.38780    0.00000    0.00000   -0.23011    0.02053   -0.00000   40.00000    0.44246    0.00426    0.00426 "RECTANGLE"            0.08000    0.08000    0.00000    0.00000
