/*********************************************************************
Initial conditions from MADX stitched model of PS extraction to nTOF
*********************************************************************/

betx0              =         17.3476002 ;
bety0              =        6.452074181 ;
alfx0              =       -1.453023277 ;
alfy0              =       0.5744201077 ;
dx0                =        3.273569093 ;
dy0                =                  0 ;
dpx0               =        0.367727582 ;
dpy0               =                  0 ;
